/*
WARNING: Do NOT edit the input and output ports in this file in a text
editor if you plan to continue editing the block that represents it in
the Block Editor! File corruption is VERY likely to occur.
*/
/*
Copyright (C) 1991-2013 Altera Corporation
Your use of Altera Corporation's design tools, logic functions 
and other software and tools, and its AMPP partner logic 
functions, and any output files from any of the foregoing 
(including device programming or simulation files), and any 
associated documentation or information are expressly subject 
to the terms and conditions of the Altera Program License 
Subscription Agreement, Altera MegaCore Function License 
Agreement, or other applicable license agreement, including, 
without limitation, that your use is for the sole purpose of 
programming logic devices manufactured by Altera and sold by 
Altera or its authorized distributors.  Please refer to the 
applicable agreement for further details.
*/
(header "graphic" (version "1.4"))
(pin
	(input)
	(rect 192 112 360 128)
	(text "INPUT" (rect 125 0 153 10)(font "Arial" (font_size 6)))
	(text "a" (rect 5 0 10 12)(font "Arial" ))
	(pt 168 8)
	(drawing
		(line (pt 84 12)(pt 109 12))
		(line (pt 84 4)(pt 109 4))
		(line (pt 113 8)(pt 168 8))
		(line (pt 84 12)(pt 84 4))
		(line (pt 109 4)(pt 113 8))
		(line (pt 109 12)(pt 113 8))
	)
	(text "VCC" (rect 128 7 148 17)(font "Arial" (font_size 6)))
)
(pin
	(input)
	(rect 184 384 352 400)
	(text "INPUT" (rect 125 0 153 10)(font "Arial" (font_size 6)))
	(text "b" (rect 5 0 10 12)(font "Arial" ))
	(pt 168 8)
	(drawing
		(line (pt 84 12)(pt 109 12))
		(line (pt 84 4)(pt 109 4))
		(line (pt 113 8)(pt 168 8))
		(line (pt 84 12)(pt 84 4))
		(line (pt 109 4)(pt 113 8))
		(line (pt 109 12)(pt 113 8))
	)
	(text "VCC" (rect 128 7 148 17)(font "Arial" (font_size 6)))
)
(pin
	(input)
	(rect 904 376 1072 392)
	(text "INPUT" (rect 15 0 43 10)(font "Arial" (font_size 6)))
	(text "Less" (rect 114 0 137 12)(font "Arial" ))
	(pt 0 8)
	(drawing
		(line (pt 84 12)(pt 59 12))
		(line (pt 84 4)(pt 59 4))
		(line (pt 55 8)(pt 0 8))
		(line (pt 84 12)(pt 84 4))
		(line (pt 59 4)(pt 55 8))
		(line (pt 59 12)(pt 55 8))
	)
	(flipy)
	(text "GND" (rect 20 7 41 17)(font "Arial" (font_size 6)))
)
(pin
	(input)
	(rect 184 416 352 432)
	(text "INPUT" (rect 125 0 153 10)(font "Arial" (font_size 6)))
	(text "Binvert" (rect 5 0 40 12)(font "Arial" ))
	(pt 168 8)
	(drawing
		(line (pt 84 12)(pt 109 12))
		(line (pt 84 4)(pt 109 4))
		(line (pt 113 8)(pt 168 8))
		(line (pt 84 12)(pt 84 4))
		(line (pt 109 4)(pt 113 8))
		(line (pt 109 12)(pt 113 8))
	)
	(text "GND" (rect 128 7 149 17)(font "Arial" (font_size 6)))
)
(pin
	(input)
	(rect 192 144 360 160)
	(text "INPUT" (rect 125 0 153 10)(font "Arial" (font_size 6)))
	(text "Ainvert" (rect 5 0 40 12)(font "Arial" ))
	(pt 168 8)
	(drawing
		(line (pt 84 12)(pt 109 12))
		(line (pt 84 4)(pt 109 4))
		(line (pt 113 8)(pt 168 8))
		(line (pt 84 12)(pt 84 4))
		(line (pt 109 4)(pt 113 8))
		(line (pt 109 12)(pt 113 8))
	)
	(text "GND" (rect 128 7 149 17)(font "Arial" (font_size 6)))
)
(pin
	(input)
	(rect 728 480 896 496)
	(text "INPUT" (rect 15 0 43 10)(font "Arial" (font_size 6)))
	(text "CarryIn" (rect 114 0 151 12)(font "Arial" ))
	(pt 0 8)
	(drawing
		(line (pt 84 12)(pt 59 12))
		(line (pt 84 4)(pt 59 4))
		(line (pt 55 8)(pt 0 8))
		(line (pt 84 12)(pt 84 4))
		(line (pt 59 4)(pt 55 8))
		(line (pt 59 12)(pt 55 8))
	)
	(flipy)
	(text "GND" (rect 20 7 41 17)(font "Arial" (font_size 6)))
)
(pin
	(input)
	(rect 944 88 1112 104)
	(text "INPUT" (rect 15 0 43 10)(font "Arial" (font_size 6)))
	(text "OP1" (rect 141 0 162 12)(font "Arial" ))
	(pt 0 8)
	(drawing
		(line (pt 84 12)(pt 59 12))
		(line (pt 84 4)(pt 59 4))
		(line (pt 55 8)(pt 0 8))
		(line (pt 84 12)(pt 84 4))
		(line (pt 59 4)(pt 55 8))
		(line (pt 59 12)(pt 55 8))
	)
	(flipy)
	(text "GND" (rect 20 7 41 17)(font "Arial" (font_size 6)))
)
(pin
	(input)
	(rect 944 112 1112 128)
	(text "INPUT" (rect 15 0 43 10)(font "Arial" (font_size 6)))
	(text "OP0" (rect 141 0 162 12)(font "Arial" ))
	(pt 0 8)
	(drawing
		(line (pt 84 12)(pt 59 12))
		(line (pt 84 4)(pt 59 4))
		(line (pt 55 8)(pt 0 8))
		(line (pt 84 12)(pt 84 4))
		(line (pt 59 4)(pt 55 8))
		(line (pt 59 12)(pt 55 8))
	)
	(flipy)
	(text "GND" (rect 20 7 41 17)(font "Arial" (font_size 6)))
)
(pin
	(output)
	(rect 1088 240 1264 256)
	(text "OUTPUT" (rect 1 0 39 10)(font "Arial" (font_size 6)))
	(text "Result" (rect 90 0 121 12)(font "Arial" ))
	(pt 0 8)
	(drawing
		(line (pt 0 8)(pt 52 8))
		(line (pt 52 4)(pt 78 4))
		(line (pt 52 12)(pt 78 12))
		(line (pt 52 12)(pt 52 4))
		(line (pt 78 4)(pt 82 8))
		(line (pt 82 8)(pt 78 12))
		(line (pt 78 12)(pt 82 8))
	)
)
(pin
	(output)
	(rect 1008 408 1184 424)
	(text "OUTPUT" (rect 1 0 39 10)(font "Arial" (font_size 6)))
	(text "Set" (rect 90 0 106 12)(font "Arial" ))
	(pt 0 8)
	(drawing
		(line (pt 0 8)(pt 52 8))
		(line (pt 52 4)(pt 78 4))
		(line (pt 52 12)(pt 78 12))
		(line (pt 52 12)(pt 52 4))
		(line (pt 78 4)(pt 82 8))
		(line (pt 82 8)(pt 78 12))
		(line (pt 78 12)(pt 82 8))
	)
)
(pin
	(output)
	(rect 1008 448 1184 464)
	(text "OUTPUT" (rect 1 0 39 10)(font "Arial" (font_size 6)))
	(text "Overflow" (rect 90 0 134 12)(font "Arial" ))
	(pt 0 8)
	(drawing
		(line (pt 0 8)(pt 52 8))
		(line (pt 52 4)(pt 78 4))
		(line (pt 52 12)(pt 78 12))
		(line (pt 52 12)(pt 52 4))
		(line (pt 78 4)(pt 82 8))
		(line (pt 82 8)(pt 78 12))
		(line (pt 78 12)(pt 82 8))
	)
)
(symbol
	(rect 432 104 480 136)
	(text "NOT" (rect 1 0 21 10)(font "Arial" (font_size 6)))
	(text "inst" (rect 3 21 20 33)(font "Arial" ))
	(port
		(pt 0 16)
		(input)
		(text "IN" (rect 2 7 13 19)(font "Courier New" (bold))(invisible))
		(text "IN" (rect 2 7 13 19)(font "Courier New" (bold))(invisible))
		(line (pt 0 16)(pt 13 16))
	)
	(port
		(pt 48 16)
		(output)
		(text "OUT" (rect 32 7 49 19)(font "Courier New" (bold))(invisible))
		(text "OUT" (rect 32 7 49 19)(font "Courier New" (bold))(invisible))
		(line (pt 39 16)(pt 48 16))
	)
	(drawing
		(line (pt 13 25)(pt 13 7))
		(line (pt 13 7)(pt 31 16))
		(line (pt 13 25)(pt 31 16))
		(circle (rect 31 12 39 20))
	)
)
(symbol
	(rect 416 376 464 408)
	(text "NOT" (rect 1 0 21 10)(font "Arial" (font_size 6)))
	(text "inst1" (rect 3 21 26 33)(font "Arial" ))
	(port
		(pt 0 16)
		(input)
		(text "IN" (rect 2 7 13 19)(font "Courier New" (bold))(invisible))
		(text "IN" (rect 2 7 13 19)(font "Courier New" (bold))(invisible))
		(line (pt 0 16)(pt 13 16))
	)
	(port
		(pt 48 16)
		(output)
		(text "OUT" (rect 32 7 49 19)(font "Courier New" (bold))(invisible))
		(text "OUT" (rect 32 7 49 19)(font "Courier New" (bold))(invisible))
		(line (pt 39 16)(pt 48 16))
	)
	(drawing
		(line (pt 13 25)(pt 13 7))
		(line (pt 13 7)(pt 31 16))
		(line (pt 13 25)(pt 31 16))
		(circle (rect 31 12 39 20))
	)
)
(symbol
	(rect 744 120 808 168)
	(text "AND2" (rect 1 0 25 10)(font "Arial" (font_size 6)))
	(text "inst6" (rect 3 37 26 49)(font "Arial" ))
	(port
		(pt 0 16)
		(input)
		(text "IN1" (rect 2 7 19 19)(font "Courier New" (bold))(invisible))
		(text "IN1" (rect 2 7 19 19)(font "Courier New" (bold))(invisible))
		(line (pt 0 16)(pt 14 16))
	)
	(port
		(pt 0 32)
		(input)
		(text "IN2" (rect 2 23 19 35)(font "Courier New" (bold))(invisible))
		(text "IN2" (rect 2 23 19 35)(font "Courier New" (bold))(invisible))
		(line (pt 0 32)(pt 14 32))
	)
	(port
		(pt 64 24)
		(output)
		(text "OUT" (rect 48 15 65 27)(font "Courier New" (bold))(invisible))
		(text "OUT" (rect 48 15 65 27)(font "Courier New" (bold))(invisible))
		(line (pt 42 24)(pt 64 24))
	)
	(drawing
		(line (pt 14 12)(pt 30 12))
		(line (pt 14 37)(pt 31 37))
		(line (pt 14 12)(pt 14 37))
		(arc (pt 31 37)(pt 30 12)(rect 18 12 43 37))
	)
)
(symbol
	(rect 744 232 808 280)
	(text "OR2" (rect 1 0 19 10)(font "Arial" (font_size 6)))
	(text "inst7" (rect 3 37 26 49)(font "Arial" ))
	(port
		(pt 0 32)
		(input)
		(text "IN2" (rect 2 23 19 35)(font "Courier New" (bold))(invisible))
		(text "IN2" (rect 2 23 19 35)(font "Courier New" (bold))(invisible))
		(line (pt 0 32)(pt 15 32))
	)
	(port
		(pt 0 16)
		(input)
		(text "IN1" (rect 2 7 19 19)(font "Courier New" (bold))(invisible))
		(text "IN1" (rect 2 7 19 19)(font "Courier New" (bold))(invisible))
		(line (pt 0 16)(pt 15 16))
	)
	(port
		(pt 64 24)
		(output)
		(text "OUT" (rect 48 15 65 27)(font "Courier New" (bold))(invisible))
		(text "OUT" (rect 48 15 65 27)(font "Courier New" (bold))(invisible))
		(line (pt 48 24)(pt 64 24))
	)
	(drawing
		(line (pt 14 36)(pt 25 36))
		(line (pt 14 13)(pt 25 13))
		(arc (pt 7 29)(pt 7 19)(rect -14 8 19 41))
		(arc (pt 49 24)(pt 25 13)(rect -6 13 57 76))
		(arc (pt 25 35)(pt 49 24)(rect -6 -27 57 36))
	)
)
(symbol
	(rect 752 360 848 456)
	(text "FA_1bit" (rect 5 0 48 14)(font "Arial" (font_size 8)))
	(text "inst10" (rect 8 80 37 92)(font "Arial" ))
	(port
		(pt 0 32)
		(input)
		(text "A" (rect 0 0 9 14)(font "Arial" (font_size 8)))
		(text "A" (rect 21 27 30 41)(font "Arial" (font_size 8)))
		(line (pt 0 32)(pt 16 32))
	)
	(port
		(pt 0 48)
		(input)
		(text "B" (rect 0 0 8 14)(font "Arial" (font_size 8)))
		(text "B" (rect 21 43 29 57)(font "Arial" (font_size 8)))
		(line (pt 0 48)(pt 16 48))
	)
	(port
		(pt 0 64)
		(input)
		(text "Cin" (rect 0 0 17 14)(font "Arial" (font_size 8)))
		(text "Cin" (rect 21 59 38 73)(font "Arial" (font_size 8)))
		(line (pt 0 64)(pt 16 64))
	)
	(port
		(pt 96 32)
		(output)
		(text "S" (rect 0 0 8 14)(font "Arial" (font_size 8)))
		(text "S" (rect 67 27 75 41)(font "Arial" (font_size 8)))
		(line (pt 96 32)(pt 80 32))
	)
	(port
		(pt 96 48)
		(output)
		(text "Cout" (rect 0 0 25 14)(font "Arial" (font_size 8)))
		(text "Cout" (rect 50 43 75 57)(font "Arial" (font_size 8)))
		(line (pt 96 48)(pt 80 48))
	)
	(drawing
		(rectangle (rect 16 16 80 80))
	)
)
(symbol
	(rect 560 96 680 176)
	(text "21mux" (rect 41 0 87 16)(font "Arial" (font_size 10)))
	(text "inst8" (rect 3 69 26 81)(font "Arial" ))
	(port
		(pt 0 56)
		(input)
		(text "S" (rect 22 48 30 62)(font "Arial" (font_size 8)))
		(text "S" (rect 22 48 30 62)(font "Arial" (font_size 8)))
		(line (pt 0 56)(pt 16 56))
	)
	(port
		(pt 0 40)
		(input)
		(text "B" (rect 22 32 30 46)(font "Arial" (font_size 8)))
		(text "B" (rect 22 32 30 46)(font "Arial" (font_size 8)))
		(line (pt 0 40)(pt 16 40))
	)
	(port
		(pt 0 24)
		(input)
		(text "A" (rect 22 16 31 30)(font "Arial" (font_size 8)))
		(text "A" (rect 22 16 31 30)(font "Arial" (font_size 8)))
		(line (pt 0 24)(pt 16 24))
	)
	(port
		(pt 120 40)
		(output)
		(text "Y" (rect 93 32 102 46)(font "Arial" (font_size 8)))
		(text "Y" (rect 92 32 101 46)(font "Arial" (font_size 8)))
		(line (pt 104 40)(pt 120 40))
	)
	(drawing
		(text "MULTIPLEXER" (rect 30 65 109 79)(font "Arial" (font_size 8)))
		(line (pt 16 64)(pt 104 64))
		(line (pt 16 16)(pt 104 16))
		(line (pt 16 64)(pt 16 16))
		(line (pt 104 64)(pt 104 16))
	)
)
(symbol
	(rect 552 368 672 448)
	(text "21mux" (rect 41 0 87 16)(font "Arial" (font_size 10)))
	(text "inst11" (rect 3 69 32 81)(font "Arial" ))
	(port
		(pt 0 56)
		(input)
		(text "S" (rect 22 48 30 62)(font "Arial" (font_size 8)))
		(text "S" (rect 22 48 30 62)(font "Arial" (font_size 8)))
		(line (pt 0 56)(pt 16 56))
	)
	(port
		(pt 0 40)
		(input)
		(text "B" (rect 22 32 30 46)(font "Arial" (font_size 8)))
		(text "B" (rect 22 32 30 46)(font "Arial" (font_size 8)))
		(line (pt 0 40)(pt 16 40))
	)
	(port
		(pt 0 24)
		(input)
		(text "A" (rect 22 16 31 30)(font "Arial" (font_size 8)))
		(text "A" (rect 22 16 31 30)(font "Arial" (font_size 8)))
		(line (pt 0 24)(pt 16 24))
	)
	(port
		(pt 120 40)
		(output)
		(text "Y" (rect 93 32 102 46)(font "Arial" (font_size 8)))
		(text "Y" (rect 92 32 101 46)(font "Arial" (font_size 8)))
		(line (pt 104 40)(pt 120 40))
	)
	(drawing
		(text "MULTIPLEXER" (rect 30 65 109 79)(font "Arial" (font_size 8)))
		(line (pt 16 64)(pt 104 64))
		(line (pt 16 16)(pt 104 16))
		(line (pt 16 64)(pt 16 16))
		(line (pt 104 64)(pt 104 16))
	)
)
(symbol
	(rect 920 432 984 480)
	(text "XOR" (rect 1 0 21 10)(font "Arial" (font_size 6)))
	(text "inst36" (rect 3 37 32 49)(font "Arial" ))
	(port
		(pt 0 16)
		(input)
		(text "IN1" (rect 2 7 19 19)(font "Courier New" (bold))(invisible))
		(text "IN1" (rect 2 7 19 19)(font "Courier New" (bold))(invisible))
		(line (pt 0 16)(pt 11 16))
	)
	(port
		(pt 0 32)
		(input)
		(text "IN2" (rect 2 23 19 35)(font "Courier New" (bold))(invisible))
		(text "IN2" (rect 2 23 19 35)(font "Courier New" (bold))(invisible))
		(line (pt 0 32)(pt 11 32))
	)
	(port
		(pt 64 24)
		(output)
		(text "OUT" (rect 48 15 65 27)(font "Courier New" (bold))(invisible))
		(text "OUT" (rect 48 15 65 27)(font "Courier New" (bold))(invisible))
		(line (pt 49 24)(pt 64 24))
	)
	(drawing
		(line (pt 14 13)(pt 25 13))
		(line (pt 14 36)(pt 25 36))
		(arc (pt 7 29)(pt 7 19)(rect -14 8 19 41))
		(arc (pt 49 24)(pt 25 13)(rect -6 13 57 76))
		(arc (pt 25 35)(pt 49 24)(rect -6 -27 57 36))
		(arc (pt 8 36)(pt 8 12)(rect -21 7 14 42))
	)
)
(symbol
	(rect 944 176 1048 320)
	(text "MUX41" (rect 29 -1 76 15)(font "Courier New" (font_size 10)(bold)))
	(text "inst12" (rect 3 133 32 145)(font "Arial" ))
	(port
		(pt 0 120)
		(input)
		(text "S0" (rect 20 116 31 128)(font "Courier New" (bold)))
		(text "S0" (rect 20 116 31 128)(font "Courier New" (bold)))
		(line (pt 0 120)(pt 16 120))
	)
	(port
		(pt 0 72)
		(input)
		(text "D2" (rect 20 68 31 80)(font "Courier New" (bold)))
		(text "D2" (rect 20 68 31 80)(font "Courier New" (bold)))
		(line (pt 0 72)(pt 16 72))
	)
	(port
		(pt 0 104)
		(input)
		(text "S1" (rect 20 100 31 112)(font "Courier New" (bold)))
		(text "S1" (rect 20 100 31 112)(font "Courier New" (bold)))
		(line (pt 0 104)(pt 16 104))
	)
	(port
		(pt 0 88)
		(input)
		(text "D3" (rect 20 84 31 96)(font "Courier New" (bold)))
		(text "D3" (rect 20 84 31 96)(font "Courier New" (bold)))
		(line (pt 0 88)(pt 16 88))
	)
	(port
		(pt 0 40)
		(input)
		(text "D0" (rect 20 36 31 48)(font "Courier New" (bold)))
		(text "D0" (rect 20 36 31 48)(font "Courier New" (bold)))
		(line (pt 0 40)(pt 16 40))
	)
	(port
		(pt 0 24)
		(input)
		(text "INH" (rect 20 20 37 32)(font "Courier New" (bold)))
		(text "INH" (rect 20 20 37 32)(font "Courier New" (bold)))
		(line (pt 0 24)(pt 16 24))
	)
	(port
		(pt 0 56)
		(input)
		(text "D1" (rect 20 52 31 64)(font "Courier New" (bold)))
		(text "D1" (rect 20 52 31 64)(font "Courier New" (bold)))
		(line (pt 0 56)(pt 16 56))
	)
	(port
		(pt 104 72)
		(output)
		(text "Q" (rect 81 68 86 80)(font "Courier New" (bold)))
		(text "Q" (rect 79 68 84 80)(font "Courier New" (bold)))
		(line (pt 88 72)(pt 104 72))
	)
	(drawing
		(line (pt 16 128)(pt 16 16))
		(line (pt 88 128)(pt 88 16))
		(line (pt 16 128)(pt 88 128))
		(line (pt 16 16)(pt 88 16))
	)
)
(symbol
	(rect 944 136 976 168)
	(text "GND" (rect 16 3 26 24)(font "Arial" (font_size 6))(vertical))
	(text "inst13" (rect 21 0 33 29)(font "Arial" )(vertical)(invisible))
	(port
		(pt 0 16)
		(output)
		(text "1" (rect 18 0 23 12)(font "Courier New" (bold))(invisible))
		(text "1" (rect 0 9 12 14)(font "Courier New" (bold))(vertical)(invisible))
		(line (pt 8 16)(pt 0 16))
	)
	(drawing
		(line (pt 8 24)(pt 16 16))
		(line (pt 16 16)(pt 8 8))
		(line (pt 8 24)(pt 8 8))
	)
	(rotate90)
)
(connector
	(pt 744 152)
	(pt 720 152)
)
(connector
	(pt 744 264)
	(pt 720 264)
)
(connector
	(pt 744 248)
	(pt 688 248)
)
(connector
	(pt 752 392)
	(pt 688 392)
)
(connector
	(pt 848 392)
	(pt 880 392)
)
(connector
	(pt 808 256)
	(pt 848 256)
)
(connector
	(pt 808 144)
	(pt 848 144)
)
(connector
	(pt 408 120)
	(pt 408 136)
)
(connector
	(pt 360 152)
	(pt 560 152)
)
(connector
	(pt 392 392)
	(pt 392 408)
)
(connector
	(pt 352 424)
	(pt 552 424)
)
(connector
	(pt 752 424)
	(pt 728 424)
)
(connector
	(pt 720 152)
	(pt 720 264)
)
(connector
	(pt 720 264)
	(pt 720 408)
)
(connector
	(pt 688 136)
	(pt 688 248)
)
(connector
	(pt 688 248)
	(pt 688 392)
)
(connector
	(pt 672 408)
	(pt 720 408)
)
(connector
	(pt 720 408)
	(pt 752 408)
)
(connector
	(pt 680 136)
	(pt 688 136)
)
(connector
	(pt 688 136)
	(pt 744 136)
)
(connector
	(pt 848 408)
	(pt 864 408)
)
(connector
	(pt 880 416)
	(pt 1008 416)
)
(connector
	(pt 848 256)
	(pt 848 232)
)
(connector
	(pt 848 144)
	(pt 848 216)
)
(connector
	(pt 904 384)
	(pt 904 264)
)
(connector
	(pt 880 248)
	(pt 944 248)
)
(connector
	(pt 904 264)
	(pt 944 264)
)
(connector
	(pt 848 216)
	(pt 944 216)
)
(connector
	(pt 848 232)
	(pt 944 232)
)
(connector
	(pt 880 248)
	(pt 880 392)
)
(connector
	(pt 880 392)
	(pt 880 416)
)
(connector
	(pt 1048 248)
	(pt 1088 248)
)
(connector
	(pt 936 200)
	(pt 944 200)
)
(connector
	(pt 936 152)
	(pt 944 152)
)
(connector
	(pt 936 200)
	(pt 936 152)
)
(connector
	(pt 912 96)
	(pt 944 96)
)
(connector
	(pt 864 408)
	(pt 864 448)
)
(connector
	(pt 728 424)
	(pt 728 464)
)
(connector
	(pt 728 464)
	(pt 728 488)
)
(connector
	(pt 864 448)
	(pt 920 448)
)
(connector
	(pt 728 464)
	(pt 920 464)
)
(connector
	(pt 984 456)
	(pt 1008 456)
)
(connector
	(pt 944 120)
	(pt 928 120)
)
(connector
	(pt 928 120)
	(pt 928 296)
)
(connector
	(pt 944 296)
	(pt 928 296)
)
(connector
	(pt 912 96)
	(pt 912 280)
)
(connector
	(pt 912 280)
	(pt 944 280)
)
(connector
	(pt 408 136)
	(pt 560 136)
)
(connector
	(pt 480 120)
	(pt 560 120)
)
(connector
	(pt 360 120)
	(pt 408 120)
)
(connector
	(pt 408 120)
	(pt 432 120)
)
(connector
	(pt 464 392)
	(pt 552 392)
)
(connector
	(pt 352 392)
	(pt 392 392)
)
(connector
	(pt 392 392)
	(pt 416 392)
)
(connector
	(pt 552 408)
	(pt 392 408)
)
(junction (pt 720 264))
(junction (pt 688 248))
(junction (pt 720 408))
(junction (pt 688 136))
(junction (pt 728 464))
(junction (pt 880 392))
(junction (pt 408 120))
(junction (pt 392 392))
