/*
WARNING: Do NOT edit the input and output ports in this file in a text
editor if you plan to continue editing the block that represents it in
the Block Editor! File corruption is VERY likely to occur.
*/
/*
Copyright (C) 1991-2013 Altera Corporation
Your use of Altera Corporation's design tools, logic functions 
and other software and tools, and its AMPP partner logic 
functions, and any output files from any of the foregoing 
(including device programming or simulation files), and any 
associated documentation or information are expressly subject 
to the terms and conditions of the Altera Program License 
Subscription Agreement, Altera MegaCore Function License 
Agreement, or other applicable license agreement, including, 
without limitation, that your use is for the sole purpose of 
programming logic devices manufactured by Altera and sold by 
Altera or its authorized distributors.  Please refer to the 
applicable agreement for further details.
*/
(header "graphic" (version "1.4"))
(pin
	(input)
	(rect -544 912 -528 1080)
	(text "INPUT" (rect 0 15 9 44)(font "Arial" (font_size 6))(vertical))
	(text "SW[17]" (rect 2 107 12 142)(font "Arial" )(vertical))
	(pt 8 0)
	(drawing
		(line (pt 12 84)(pt 12 59))
		(line (pt 4 84)(pt 4 59))
		(line (pt 8 55)(pt 8 0))
		(line (pt 12 84)(pt 4 84))
		(line (pt 4 59)(pt 8 55))
		(line (pt 12 59)(pt 8 55))
	)
	(rotate90)
	(text "VCC" (rect 7 20 16 41)(font "Arial" (font_size 6))(vertical))
	(annotation_block (location)(rect 760 1120 816 1136))
)
(pin
	(input)
	(rect -864 224 -696 240)
	(text "INPUT" (rect 125 0 154 9)(font "Arial" (font_size 6)))
	(text "GPIO_1[0]" (rect 5 0 55 10)(font "Arial" ))
	(pt 168 8)
	(drawing
		(line (pt 84 12)(pt 109 12))
		(line (pt 84 4)(pt 109 4))
		(line (pt 113 8)(pt 168 8))
		(line (pt 84 12)(pt 84 4))
		(line (pt 109 4)(pt 113 8))
		(line (pt 109 12)(pt 113 8))
	)
	(text "VCC" (rect 128 7 149 16)(font "Arial" (font_size 6)))
	(annotation_block (location)(rect 608 768 664 784))
)
(pin
	(input)
	(rect -864 240 -696 256)
	(text "INPUT" (rect 125 0 154 9)(font "Arial" (font_size 6)))
	(text "GPIO_1[1]" (rect 5 0 55 10)(font "Arial" ))
	(pt 168 8)
	(drawing
		(line (pt 84 12)(pt 109 12))
		(line (pt 84 4)(pt 109 4))
		(line (pt 113 8)(pt 168 8))
		(line (pt 84 12)(pt 84 4))
		(line (pt 109 4)(pt 113 8))
		(line (pt 109 12)(pt 113 8))
	)
	(text "VCC" (rect 128 7 149 16)(font "Arial" (font_size 6)))
	(annotation_block (location)(rect 608 808 664 824))
)
(pin
	(input)
	(rect -864 256 -696 272)
	(text "INPUT" (rect 125 0 154 9)(font "Arial" (font_size 6)))
	(text "GPIO_1[2]" (rect 5 0 55 10)(font "Arial" ))
	(pt 168 8)
	(drawing
		(line (pt 84 12)(pt 109 12))
		(line (pt 84 4)(pt 109 4))
		(line (pt 113 8)(pt 168 8))
		(line (pt 84 12)(pt 84 4))
		(line (pt 109 4)(pt 113 8))
		(line (pt 109 12)(pt 113 8))
	)
	(text "VCC" (rect 128 7 149 16)(font "Arial" (font_size 6)))
	(annotation_block (location)(rect 608 840 664 856))
)
(pin
	(input)
	(rect -864 272 -696 288)
	(text "INPUT" (rect 125 0 154 9)(font "Arial" (font_size 6)))
	(text "GPIO_1[3]" (rect 5 0 55 10)(font "Arial" ))
	(pt 168 8)
	(drawing
		(line (pt 84 12)(pt 109 12))
		(line (pt 84 4)(pt 109 4))
		(line (pt 113 8)(pt 168 8))
		(line (pt 84 12)(pt 84 4))
		(line (pt 109 4)(pt 113 8))
		(line (pt 109 12)(pt 113 8))
	)
	(text "VCC" (rect 128 7 149 16)(font "Arial" (font_size 6)))
	(annotation_block (location)(rect 608 880 664 896))
)
(pin
	(output)
	(rect -752 56 -576 72)
	(text "OUTPUT" (rect 137 0 177 9)(font "Arial" (font_size 6)))
	(text "LEDR[3]" (rect 5 0 45 10)(font "Arial" ))
	(pt 176 8)
	(drawing
		(line (pt 176 8)(pt 124 8))
		(line (pt 124 4)(pt 98 4))
		(line (pt 124 12)(pt 98 12))
		(line (pt 124 12)(pt 124 4))
		(line (pt 98 4)(pt 94 8))
		(line (pt 94 8)(pt 98 12))
		(line (pt 98 12)(pt 94 8))
	)
	(flipy)
	(annotation_block (location)(rect 840 632 904 648))
)
(pin
	(output)
	(rect -752 72 -576 88)
	(text "OUTPUT" (rect 137 0 177 9)(font "Arial" (font_size 6)))
	(text "LEDR[2]" (rect 5 0 45 10)(font "Arial" ))
	(pt 176 8)
	(drawing
		(line (pt 176 8)(pt 124 8))
		(line (pt 124 4)(pt 98 4))
		(line (pt 124 12)(pt 98 12))
		(line (pt 124 12)(pt 124 4))
		(line (pt 98 4)(pt 94 8))
		(line (pt 94 8)(pt 98 12))
		(line (pt 98 12)(pt 94 8))
	)
	(flipy)
	(annotation_block (location)(rect 840 648 904 664))
)
(pin
	(output)
	(rect -752 88 -576 104)
	(text "OUTPUT" (rect 137 0 177 9)(font "Arial" (font_size 6)))
	(text "LEDR[1]" (rect 5 0 45 10)(font "Arial" ))
	(pt 176 8)
	(drawing
		(line (pt 176 8)(pt 124 8))
		(line (pt 124 4)(pt 98 4))
		(line (pt 124 12)(pt 98 12))
		(line (pt 124 12)(pt 124 4))
		(line (pt 98 4)(pt 94 8))
		(line (pt 94 8)(pt 98 12))
		(line (pt 98 12)(pt 94 8))
	)
	(flipy)
	(annotation_block (location)(rect 840 664 904 680))
)
(pin
	(output)
	(rect -752 104 -576 120)
	(text "OUTPUT" (rect 137 0 177 9)(font "Arial" (font_size 6)))
	(text "LEDR[0]" (rect 5 0 45 10)(font "Arial" ))
	(pt 176 8)
	(drawing
		(line (pt 176 8)(pt 124 8))
		(line (pt 124 4)(pt 98 4))
		(line (pt 124 12)(pt 98 12))
		(line (pt 124 12)(pt 124 4))
		(line (pt 98 4)(pt 94 8))
		(line (pt 94 8)(pt 98 12))
		(line (pt 98 12)(pt 94 8))
	)
	(flipy)
	(annotation_block (location)(rect 840 680 904 696))
)
(symbol
	(rect 480 424 656 696)
	(text "ula_full" (rect 5 0 47 12)(font "Arial" (font_size 8)))
	(text "inst" (rect 8 112 25 122)(font "Arial" ))
	(port
		(pt 72 0)
		(input)
		(text "OP" (rect 0 0 20 12)(font "Arial" (font_size 8)))
		(text "OP" (rect 64 25 76 45)(font "Arial" (font_size 8))(vertical))
		(line (pt 72 0)(pt 72 16))
	)
	(port
		(pt 0 144)
		(input)
		(text "A[3..0]" (rect 0 0 38 12)(font "Arial" (font_size 8)))
		(text "A[3..0]" (rect 21 139 59 151)(font "Arial" (font_size 8)))
		(line (pt 0 144)(pt 16 144)(line_width 3))
	)
	(port
		(pt 0 208)
		(input)
		(text "B[3..0]" (rect 0 0 38 12)(font "Arial" (font_size 8)))
		(text "B[3..0]" (rect 21 203 59 215)(font "Arial" (font_size 8)))
		(line (pt 0 208)(pt 16 208)(line_width 3))
	)
	(port
		(pt 96 0)
		(input)
		(text "SUMSUB" (rect 0 0 57 12)(font "Arial" (font_size 8)))
		(text "SUMSUB" (rect 88 25 100 82)(font "Arial" (font_size 8))(vertical))
		(line (pt 96 0)(pt 96 17))
	)
	(port
		(pt 176 136)
		(output)
		(text "RESULT[7..0]" (rect 0 0 81 12)(font "Arial" (font_size 8)))
		(text "RESULT[7..0]" (rect 81 131 162 143)(font "Arial" (font_size 8)))
		(line (pt 176 136)(pt 160 136)(line_width 3))
	)
	(drawing
		(rectangle (rect 16 16 160 256))
	)
)
(symbol
	(rect 136 464 288 648)
	(text "reg" (rect 5 0 25 12)(font "Arial" (font_size 8)))
	(text "inst2" (rect 8 82 31 92)(font "Arial" ))
	(port
		(pt 80 0)
		(input)
		(text "CLEAR" (rect 0 0 44 12)(font "Arial" (font_size 8)))
		(text "CLEAR" (rect 72 25 84 69)(font "Arial" (font_size 8))(vertical))
		(line (pt 80 0)(pt 80 17))
	)
	(port
		(pt 0 104)
		(input)
		(text "input[3..0]" (rect 0 0 59 12)(font "Arial" (font_size 8)))
		(text "input[3..0]" (rect 21 99 80 111)(font "Arial" (font_size 8)))
		(line (pt 0 104)(pt 16 104)(line_width 3))
	)
	(port
		(pt 80 184)
		(input)
		(text "clock" (rect 0 -40 31 -28)(font "Arial" (font_size 8)))
		(text "clock" (rect 72 127 84 158)(font "Arial" (font_size 8))(vertical))
		(line (pt 80 184)(pt 80 167))
	)
	(port
		(pt 152 104)
		(output)
		(text "r[3..0]" (rect 0 0 35 12)(font "Arial" (font_size 8)))
		(text "r[3..0]" (rect 96 99 131 111)(font "Arial" (font_size 8)))
		(line (pt 152 104)(pt 136 104)(line_width 3))
	)
	(drawing
		(rectangle (rect 16 16 136 160))
	)
)
(symbol
	(rect 128 880 280 1064)
	(text "reg" (rect 5 0 25 12)(font "Arial" (font_size 8)))
	(text "inst3" (rect 8 82 31 92)(font "Arial" ))
	(port
		(pt 80 0)
		(input)
		(text "CLEAR" (rect 0 0 44 12)(font "Arial" (font_size 8)))
		(text "CLEAR" (rect 72 25 84 69)(font "Arial" (font_size 8))(vertical))
		(line (pt 80 0)(pt 80 17))
	)
	(port
		(pt 0 104)
		(input)
		(text "input[3..0]" (rect 0 0 59 12)(font "Arial" (font_size 8)))
		(text "input[3..0]" (rect 21 99 80 111)(font "Arial" (font_size 8)))
		(line (pt 0 104)(pt 16 104)(line_width 3))
	)
	(port
		(pt 80 184)
		(input)
		(text "clock" (rect 0 -40 31 -28)(font "Arial" (font_size 8)))
		(text "clock" (rect 72 127 84 158)(font "Arial" (font_size 8))(vertical))
		(line (pt 80 184)(pt 80 167))
	)
	(port
		(pt 152 104)
		(output)
		(text "r[3..0]" (rect 0 0 35 12)(font "Arial" (font_size 8)))
		(text "r[3..0]" (rect 96 99 131 111)(font "Arial" (font_size 8)))
		(line (pt 152 104)(pt 136 104)(line_width 3))
	)
	(drawing
		(rectangle (rect 16 16 136 160))
	)
)
(symbol
	(rect -584 128 -368 376)
	(text "Keyboard" (rect 5 0 62 12)(font "Arial" (font_size 8)))
	(text "inst5" (rect 176 168 199 178)(font "Arial" ))
	(port
		(pt 0 168)
		(input)
		(text "CLK" (rect 0 0 28 12)(font "Arial" (font_size 8)))
		(text "CLK" (rect 21 163 49 175)(font "Arial" (font_size 8)))
		(line (pt 0 168)(pt 16 168))
	)
	(port
		(pt 0 104)
		(input)
		(text "KEYOUTPUT[3]" (rect 0 0 95 12)(font "Arial" (font_size 8)))
		(text "KEYOUTPUT[3]" (rect 21 99 116 111)(font "Arial" (font_size 8)))
		(line (pt 0 104)(pt 16 104))
	)
	(port
		(pt 0 120)
		(input)
		(text "KEYOUTPUT[2]" (rect 0 0 95 12)(font "Arial" (font_size 8)))
		(text "KEYOUTPUT[2]" (rect 21 115 116 127)(font "Arial" (font_size 8)))
		(line (pt 0 120)(pt 16 120))
	)
	(port
		(pt 0 136)
		(input)
		(text "KEYOUTPUT[1]" (rect 0 0 95 12)(font "Arial" (font_size 8)))
		(text "KEYOUTPUT[1]" (rect 21 131 116 143)(font "Arial" (font_size 8)))
		(line (pt 0 136)(pt 16 136))
	)
	(port
		(pt 0 152)
		(input)
		(text "KEYOUTPUT[0]" (rect 0 0 95 12)(font "Arial" (font_size 8)))
		(text "KEYOUTPUT[0]" (rect 21 147 116 159)(font "Arial" (font_size 8)))
		(line (pt 0 152)(pt 16 152))
	)
	(port
		(pt 80 0)
		(output)
		(text "KEYINPUT[3]" (rect 0 0 81 12)(font "Arial" (font_size 8)))
		(text "KEYINPUT[3]" (rect 72 23 84 104)(font "Arial" (font_size 8))(vertical))
		(line (pt 80 0)(pt 80 16))
	)
	(port
		(pt 96 0)
		(output)
		(text "KEYINPUT[2]" (rect 0 0 81 12)(font "Arial" (font_size 8)))
		(text "KEYINPUT[2]" (rect 88 23 100 104)(font "Arial" (font_size 8))(vertical))
		(line (pt 96 0)(pt 96 15))
	)
	(port
		(pt 112 0)
		(output)
		(text "KEYINPUT[1]" (rect 0 0 81 12)(font "Arial" (font_size 8)))
		(text "KEYINPUT[1]" (rect 104 23 116 104)(font "Arial" (font_size 8))(vertical))
		(line (pt 112 0)(pt 112 15))
	)
	(port
		(pt 128 0)
		(output)
		(text "KEYINPUT[0]" (rect 0 0 81 12)(font "Arial" (font_size 8)))
		(text "KEYINPUT[0]" (rect 120 23 132 104)(font "Arial" (font_size 8))(vertical))
		(line (pt 128 0)(pt 128 15))
	)
	(port
		(pt 216 128)
		(output)
		(text "OUTPUT[7..0]" (rect 0 0 83 12)(font "Arial" (font_size 8)))
		(text "OUTPUT[7..0]" (rect 120 123 203 135)(font "Arial" (font_size 8)))
		(line (pt 216 128)(pt 200 128)(line_width 3))
	)
	(drawing
		(rectangle (rect 16 16 200 192))
	)
)
(symbol
	(rect -288 224 -128 304)
	(text "decFromKey" (rect 5 0 66 10)(font "Arial" ))
	(text "inst6" (rect 8 64 31 74)(font "Arial" ))
	(port
		(pt 0 32)
		(input)
		(text "In[7..0]" (rect 0 0 33 10)(font "Arial" ))
		(text "In[7..0]" (rect 21 27 54 37)(font "Arial" ))
		(line (pt 0 32)(pt 16 32)(line_width 3))
	)
	(port
		(pt 160 32)
		(output)
		(text "Out[3..0]" (rect 0 0 41 10)(font "Arial" ))
		(text "Out[3..0]" (rect 105 27 146 37)(font "Arial" ))
		(line (pt 160 32)(pt 144 32)(line_width 3))
	)
	(drawing
		(rectangle (rect 16 16 144 64))
	)
)
(symbol
	(rect 128 152 280 336)
	(text "reg" (rect 5 0 25 12)(font "Arial" (font_size 8)))
	(text "inst4" (rect 8 82 31 92)(font "Arial" ))
	(port
		(pt 80 0)
		(input)
		(text "CLEAR" (rect 0 0 44 12)(font "Arial" (font_size 8)))
		(text "CLEAR" (rect 72 25 84 69)(font "Arial" (font_size 8))(vertical))
		(line (pt 80 0)(pt 80 17))
	)
	(port
		(pt 0 104)
		(input)
		(text "input[3..0]" (rect 0 0 59 12)(font "Arial" (font_size 8)))
		(text "input[3..0]" (rect 21 99 80 111)(font "Arial" (font_size 8)))
		(line (pt 0 104)(pt 16 104)(line_width 3))
	)
	(port
		(pt 80 184)
		(input)
		(text "clock" (rect 0 -40 31 -28)(font "Arial" (font_size 8)))
		(text "clock" (rect 72 127 84 158)(font "Arial" (font_size 8))(vertical))
		(line (pt 80 184)(pt 80 167))
	)
	(port
		(pt 152 104)
		(output)
		(text "r[3..0]" (rect 0 0 35 12)(font "Arial" (font_size 8)))
		(text "r[3..0]" (rect 96 99 131 111)(font "Arial" (font_size 8)))
		(line (pt 152 104)(pt 136 104)(line_width 3))
	)
	(drawing
		(rectangle (rect 16 16 136 160))
	)
)
(symbol
	(rect 720 600 888 680)
	(text "decoderoutputA" (rect 5 0 82 10)(font "Arial" ))
	(text "inst9" (rect 8 64 31 74)(font "Arial" ))
	(port
		(pt 0 32)
		(input)
		(text "In[7..0]" (rect 0 0 33 10)(font "Arial" ))
		(text "In[7..0]" (rect 21 27 54 37)(font "Arial" ))
		(line (pt 0 32)(pt 16 32)(line_width 3))
	)
	(port
		(pt 168 32)
		(output)
		(text "OutA[6..0]" (rect 0 0 48 10)(font "Arial" ))
		(text "OutA[6..0]" (rect 107 27 155 37)(font "Arial" ))
		(line (pt 168 32)(pt 152 32)(line_width 3))
	)
	(port
		(pt 168 48)
		(output)
		(text "OutB[6..0]" (rect 0 0 48 10)(font "Arial" ))
		(text "OutB[6..0]" (rect 107 43 155 53)(font "Arial" ))
		(line (pt 168 48)(pt 152 48)(line_width 3))
	)
	(drawing
		(rectangle (rect 16 16 152 64))
	)
)
(symbol
	(rect -24 -104 136 56)
	(text "statesmach" (rect 5 0 73 12)(font "Arial" (font_size 8)))
	(text "inst7" (rect 8 152 31 162)(font "Arial" ))
	(port
		(pt 160 72)
		(input)
		(text "input[1..0]" (rect 0 0 59 12)(font "Arial" (font_size 8)))
		(text "input[1..0]" (rect 76 64 135 76)(font "Arial" (font_size 8)))
		(line (pt 144 72)(pt 160 72)(line_width 3))
	)
	(port
		(pt 0 32)
		(input)
		(text "clock" (rect 0 0 31 12)(font "Arial" (font_size 8)))
		(text "clock" (rect 21 27 52 39)(font "Arial" (font_size 8)))
		(line (pt 0 32)(pt 16 32))
	)
	(port
		(pt 0 112)
		(output)
		(text "state[0]" (rect 0 0 44 12)(font "Arial" (font_size 8)))
		(text "state[0]" (rect 24 104 68 116)(font "Arial" (font_size 8)))
		(line (pt 16 112)(pt 0 112))
	)
	(port
		(pt 0 96)
		(output)
		(text "state[1]" (rect 0 0 44 12)(font "Arial" (font_size 8)))
		(text "state[1]" (rect 24 88 68 100)(font "Arial" (font_size 8)))
		(line (pt 16 96)(pt 0 96))
	)
	(drawing
		(rectangle (rect 16 16 144 144))
	)
)
(symbol
	(rect 272 -80 432 0)
	(text "checkOpNum" (rect 5 0 69 10)(font "Arial" ))
	(text "inst8" (rect 8 64 31 74)(font "Arial" ))
	(port
		(pt 160 48)
		(input)
		(text "In[3..0]" (rect 0 0 33 10)(font "Arial" ))
		(text "In[3..0]" (rect 102 40 135 50)(font "Arial" ))
		(line (pt 144 48)(pt 160 48)(line_width 3))
	)
	(port
		(pt 0 48)
		(output)
		(text "Out[1..0]" (rect 0 0 41 10)(font "Arial" ))
		(text "Out[1..0]" (rect 24 40 65 50)(font "Arial" ))
		(line (pt 16 48)(pt 0 48)(line_width 3))
	)
	(drawing
		(rectangle (rect 16 16 144 64))
	)
)
(symbol
	(rect 472 264 656 344)
	(text "decodOp" (rect 5 0 49 10)(font "Arial" ))
	(text "inst10" (rect 8 64 37 74)(font "Arial" ))
	(port
		(pt 0 40)
		(input)
		(text "opKey[3..0]" (rect 0 0 54 10)(font "Arial" ))
		(text "opKey[3..0]" (rect 21 35 75 45)(font "Arial" ))
		(line (pt 0 40)(pt 16 40)(line_width 3))
	)
	(port
		(pt 104 80)
		(output)
		(text "sumsub" (rect 0 0 38 10)(font "Arial" ))
		(text "sumsub" (rect 96 18 106 56)(font "Arial" )(vertical))
		(line (pt 104 80)(pt 104 64))
	)
	(port
		(pt 80 80)
		(output)
		(text "op" (rect 0 0 12 10)(font "Arial" ))
		(text "op" (rect 72 44 82 56)(font "Arial" )(vertical))
		(line (pt 80 80)(pt 80 64))
	)
	(drawing
		(rectangle (rect 16 16 168 64))
	)
)
(symbol
	(rect 472 24 656 224)
	(text "regMUX" (rect 5 0 45 10)(font "Arial" ))
	(text "inst1" (rect 144 176 166 186)(font "Arial" ))
	(port
		(pt 80 0)
		(input)
		(text "state[1..0]" (rect 0 0 47 10)(font "Arial" ))
		(text "state[1..0]" (rect 72 25 82 72)(font "Arial" )(vertical))
		(line (pt 80 0)(pt 80 17)(line_width 3))
	)
	(port
		(pt 0 112)
		(input)
		(text "regV1[3..0]" (rect 0 0 51 10)(font "Arial" ))
		(text "regV1[3..0]" (rect 21 107 72 117)(font "Arial" ))
		(line (pt 0 112)(pt 16 112)(line_width 3))
	)
	(port
		(pt 0 144)
		(input)
		(text "regV2[3..0]" (rect 0 0 51 10)(font "Arial" ))
		(text "regV2[3..0]" (rect 21 139 72 149)(font "Arial" ))
		(line (pt 0 144)(pt 16 144)(line_width 3))
	)
	(port
		(pt 0 64)
		(input)
		(text "regOP[3..0]" (rect 0 0 54 10)(font "Arial" ))
		(text "regOP[3..0]" (rect 21 59 75 69)(font "Arial" ))
		(line (pt 0 64)(pt 16 64)(line_width 3))
	)
	(port
		(pt 120 0)
		(output)
		(text "Out[3..0]" (rect 0 0 41 10)(font "Arial" ))
		(text "Out[3..0]" (rect 112 23 122 64)(font "Arial" )(vertical))
		(line (pt 120 0)(pt 120 15)(line_width 3))
	)
	(drawing
		(rectangle (rect 16 16 168 184))
	)
)
(symbol
	(rect 200 48 248 112)
	(text "AND2" (rect 39 1 48 29)(font "Arial" (font_size 6))(vertical))
	(text "inst11" (rect 1 3 11 31)(font "Arial" )(vertical))
	(port
		(pt 32 0)
		(input)
		(text "IN1" (rect 2 7 23 18)(font "Courier New" (bold))(invisible))
		(text "IN1" (rect 30 2 41 23)(font "Courier New" (bold))(vertical)(invisible))
		(line (pt 32 0)(pt 32 14))
	)
	(port
		(pt 16 0)
		(input)
		(text "IN2" (rect 2 23 23 34)(font "Courier New" (bold))(invisible))
		(text "IN2" (rect 14 2 25 23)(font "Courier New" (bold))(vertical)(invisible))
		(line (pt 16 0)(pt 16 14))
	)
	(port
		(pt 24 64)
		(output)
		(text "OUT" (rect 48 15 70 26)(font "Courier New" (bold))(invisible))
		(text "OUT" (rect 22 48 33 70)(font "Courier New" (bold))(vertical)(invisible))
		(line (pt 24 42)(pt 24 64))
	)
	(drawing
		(line (pt 36 14)(pt 36 30))
		(line (pt 11 14)(pt 11 31))
		(line (pt 36 14)(pt 11 14))
		(arc (pt 11 31)(pt 36 30)(rect 11 18 36 43))
	)
	(rotate270)
)
(symbol
	(rect 104 680 168 728)
	(text "AND2" (rect 1 0 29 9)(font "Arial" (font_size 6)))
	(text "inst14" (rect 3 37 32 47)(font "Arial" ))
	(port
		(pt 0 16)
		(input)
		(text "IN1" (rect 2 7 23 18)(font "Courier New" (bold))(invisible))
		(text "IN1" (rect 2 7 23 18)(font "Courier New" (bold))(invisible))
		(line (pt 0 16)(pt 14 16))
	)
	(port
		(pt 0 32)
		(input)
		(text "IN2" (rect 2 23 23 34)(font "Courier New" (bold))(invisible))
		(text "IN2" (rect 2 23 23 34)(font "Courier New" (bold))(invisible))
		(line (pt 0 32)(pt 14 32))
	)
	(port
		(pt 64 24)
		(output)
		(text "OUT" (rect 48 15 70 26)(font "Courier New" (bold))(invisible))
		(text "OUT" (rect 48 15 70 26)(font "Courier New" (bold))(invisible))
		(line (pt 42 24)(pt 64 24))
	)
	(drawing
		(line (pt 14 12)(pt 30 12))
		(line (pt 14 37)(pt 31 37))
		(line (pt 14 12)(pt 14 37))
		(arc (pt 31 37)(pt 30 12)(rect 18 12 43 37))
	)
)
(symbol
	(rect -272 328 -224 392)
	(text "BAND2" (rect 39 1 48 35)(font "Arial" (font_size 6))(vertical))
	(text "inst13" (rect 1 3 11 32)(font "Arial" )(vertical))
	(port
		(pt 32 0)
		(input)
		(text "IN1" (rect 2 7 23 18)(font "Courier New" (bold))(invisible))
		(text "IN1" (rect 30 2 41 23)(font "Courier New" (bold))(vertical)(invisible))
		(line (pt 32 0)(pt 32 9))
	)
	(port
		(pt 16 0)
		(input)
		(text "IN2" (rect 2 23 23 34)(font "Courier New" (bold))(invisible))
		(text "IN2" (rect 14 2 25 23)(font "Courier New" (bold))(vertical)(invisible))
		(line (pt 16 0)(pt 16 9))
	)
	(port
		(pt 24 64)
		(output)
		(text "OUT" (rect 48 15 70 26)(font "Courier New" (bold))(invisible))
		(text "OUT" (rect 22 48 33 70)(font "Courier New" (bold))(vertical)(invisible))
		(line (pt 24 44)(pt 24 64))
	)
	(drawing
		(line (pt 36 17)(pt 36 32))
		(line (pt 11 32)(pt 11 17))
		(line (pt 36 17)(pt 11 17))
		(arc (pt 12 32)(pt 36 32)(rect 11 20 36 45))
		(circle (rect 28 9 36 17))
		(circle (rect 12 9 20 17))
	)
	(rotate270)
)
(symbol
	(rect 128 368 192 416)
	(text "AND2" (rect 1 0 29 9)(font "Arial" (font_size 6)))
	(text "inst15" (rect 3 37 32 47)(font "Arial" ))
	(port
		(pt 0 16)
		(input)
		(text "IN1" (rect 2 7 23 18)(font "Courier New" (bold))(invisible))
		(text "IN1" (rect 2 7 23 18)(font "Courier New" (bold))(invisible))
		(line (pt 0 16)(pt 14 16))
	)
	(port
		(pt 0 32)
		(input)
		(text "IN2" (rect 2 23 23 34)(font "Courier New" (bold))(invisible))
		(text "IN2" (rect 2 23 23 34)(font "Courier New" (bold))(invisible))
		(line (pt 0 32)(pt 14 32))
	)
	(port
		(pt 64 24)
		(output)
		(text "OUT" (rect 48 15 70 26)(font "Courier New" (bold))(invisible))
		(text "OUT" (rect 48 15 70 26)(font "Courier New" (bold))(invisible))
		(line (pt 42 24)(pt 64 24))
	)
	(drawing
		(line (pt 14 12)(pt 30 12))
		(line (pt 14 37)(pt 31 37))
		(line (pt 14 12)(pt 14 37))
		(arc (pt 31 37)(pt 30 12)(rect 18 12 43 37))
	)
)
(symbol
	(rect 112 1088 176 1136)
	(text "AND2" (rect 1 0 29 9)(font "Arial" (font_size 6)))
	(text "inst16" (rect 3 37 32 47)(font "Arial" ))
	(port
		(pt 0 16)
		(input)
		(text "IN1" (rect 2 7 23 18)(font "Courier New" (bold))(invisible))
		(text "IN1" (rect 2 7 23 18)(font "Courier New" (bold))(invisible))
		(line (pt 0 16)(pt 14 16))
	)
	(port
		(pt 0 32)
		(input)
		(text "IN2" (rect 2 23 23 34)(font "Courier New" (bold))(invisible))
		(text "IN2" (rect 2 23 23 34)(font "Courier New" (bold))(invisible))
		(line (pt 0 32)(pt 14 32))
	)
	(port
		(pt 64 24)
		(output)
		(text "OUT" (rect 48 15 70 26)(font "Courier New" (bold))(invisible))
		(text "OUT" (rect 48 15 70 26)(font "Courier New" (bold))(invisible))
		(line (pt 42 24)(pt 64 24))
	)
	(drawing
		(line (pt 14 12)(pt 30 12))
		(line (pt 14 37)(pt 31 37))
		(line (pt 14 12)(pt 14 37))
		(arc (pt 31 37)(pt 30 12)(rect 18 12 43 37))
	)
)
(symbol
	(rect -80 328 -32 360)
	(text "NOT" (rect 1 0 22 9)(font "Arial" (font_size 6)))
	(text "inst17" (rect 3 21 32 31)(font "Arial" ))
	(port
		(pt 0 16)
		(input)
		(text "IN" (rect 2 7 17 18)(font "Courier New" (bold))(invisible))
		(text "IN" (rect 2 7 17 18)(font "Courier New" (bold))(invisible))
		(line (pt 0 16)(pt 13 16))
	)
	(port
		(pt 48 16)
		(output)
		(text "OUT" (rect 32 7 54 18)(font "Courier New" (bold))(invisible))
		(text "OUT" (rect 32 7 54 18)(font "Courier New" (bold))(invisible))
		(line (pt 39 16)(pt 48 16))
	)
	(drawing
		(line (pt 13 25)(pt 13 7))
		(line (pt 13 7)(pt 31 16))
		(line (pt 13 25)(pt 31 16))
		(circle (rect 31 12 39 20))
	)
)
(symbol
	(rect -96 1040 -48 1072)
	(text "NOT" (rect 1 0 22 9)(font "Arial" (font_size 6)))
	(text "inst18" (rect 3 21 32 31)(font "Arial" ))
	(port
		(pt 0 16)
		(input)
		(text "IN" (rect 2 7 17 18)(font "Courier New" (bold))(invisible))
		(text "IN" (rect 2 7 17 18)(font "Courier New" (bold))(invisible))
		(line (pt 0 16)(pt 13 16))
	)
	(port
		(pt 48 16)
		(output)
		(text "OUT" (rect 32 7 54 18)(font "Courier New" (bold))(invisible))
		(text "OUT" (rect 32 7 54 18)(font "Courier New" (bold))(invisible))
		(line (pt 39 16)(pt 48 16))
	)
	(drawing
		(line (pt 13 25)(pt 13 7))
		(line (pt 13 7)(pt 31 16))
		(line (pt 13 25)(pt 31 16))
		(circle (rect 31 12 39 20))
	)
)
(symbol
	(rect 40 328 104 376)
	(text "AND2" (rect 1 0 29 9)(font "Arial" (font_size 6)))
	(text "inst19" (rect 3 37 32 47)(font "Arial" ))
	(port
		(pt 0 16)
		(input)
		(text "IN1" (rect 2 7 23 18)(font "Courier New" (bold))(invisible))
		(text "IN1" (rect 2 7 23 18)(font "Courier New" (bold))(invisible))
		(line (pt 0 16)(pt 14 16))
	)
	(port
		(pt 0 32)
		(input)
		(text "IN2" (rect 2 23 23 34)(font "Courier New" (bold))(invisible))
		(text "IN2" (rect 2 23 23 34)(font "Courier New" (bold))(invisible))
		(line (pt 0 32)(pt 14 32))
	)
	(port
		(pt 64 24)
		(output)
		(text "OUT" (rect 48 15 70 26)(font "Courier New" (bold))(invisible))
		(text "OUT" (rect 48 15 70 26)(font "Courier New" (bold))(invisible))
		(line (pt 42 24)(pt 64 24))
	)
	(drawing
		(line (pt 14 12)(pt 30 12))
		(line (pt 14 37)(pt 31 37))
		(line (pt 14 12)(pt 14 37))
		(arc (pt 31 37)(pt 30 12)(rect 18 12 43 37))
	)
)
(symbol
	(rect 16 1024 80 1072)
	(text "AND2" (rect 1 0 29 9)(font "Arial" (font_size 6)))
	(text "inst20" (rect 3 37 32 47)(font "Arial" ))
	(port
		(pt 0 16)
		(input)
		(text "IN1" (rect 2 7 23 18)(font "Courier New" (bold))(invisible))
		(text "IN1" (rect 2 7 23 18)(font "Courier New" (bold))(invisible))
		(line (pt 0 16)(pt 14 16))
	)
	(port
		(pt 0 32)
		(input)
		(text "IN2" (rect 2 23 23 34)(font "Courier New" (bold))(invisible))
		(text "IN2" (rect 2 23 23 34)(font "Courier New" (bold))(invisible))
		(line (pt 0 32)(pt 14 32))
	)
	(port
		(pt 64 24)
		(output)
		(text "OUT" (rect 48 15 70 26)(font "Courier New" (bold))(invisible))
		(text "OUT" (rect 48 15 70 26)(font "Courier New" (bold))(invisible))
		(line (pt 42 24)(pt 64 24))
	)
	(drawing
		(line (pt 14 12)(pt 30 12))
		(line (pt 14 37)(pt 31 37))
		(line (pt 14 12)(pt 14 37))
		(arc (pt 31 37)(pt 30 12)(rect 18 12 43 37))
	)
)
(connector
	(pt -24 -72)
	(pt -304 -72)
)
(connector
	(pt 384 632)
	(pt 480 632)
	(bus)
)
(connector
	(pt 712 632)
	(pt 712 560)
	(bus)
)
(connector
	(pt 720 632)
	(pt 712 632)
	(bus)
)
(connector
	(pt 712 560)
	(pt 656 560)
	(bus)
)
(connector
	(pt 384 984)
	(pt 280 984)
	(bus)
)
(connector
	(pt 0 568)
	(pt 136 568)
	(bus)
)
(connector
	(pt 552 344)
	(pt 552 424)
)
(connector
	(pt 576 344)
	(pt 576 424)
)
(connector
	(pt 400 208)
	(pt 400 304)
	(bus)
)
(connector
	(pt 400 304)
	(pt 472 304)
	(bus)
)
(connector
	(pt 320 88)
	(pt 472 88)
	(bus)
)
(connector
	(pt 320 208)
	(pt 400 208)
	(bus)
)
(connector
	(pt 344 568)
	(pt 344 136)
	(bus)
)
(connector
	(pt 344 136)
	(pt 472 136)
	(bus)
)
(connector
	(pt 480 568)
	(pt 344 568)
	(bus)
)
(connector
	(pt 344 568)
	(pt 288 568)
	(bus)
)
(connector
	(pt 384 168)
	(pt 472 168)
	(bus)
)
(connector
	(pt 384 168)
	(pt 384 632)
	(bus)
)
(connector
	(pt 384 632)
	(pt 384 984)
	(bus)
)
(connector
	(pt 552 24)
	(pt 552 16)
	(bus)
)
(connector
	(pt 552 16)
	(pt 176 16)
	(bus)
)
(connector
	(pt -32 8)
	(pt -32 72)
)
(connector
	(text "state[0]" (rect -30 64 5 74)(font "Arial" ))
	(pt 176 72)
	(pt -32 72)
)
(connector
	(text "state[1..0]" (rect 152 14 162 61)(font "Arial" )(vertical))
	(pt 176 16)
	(pt 176 72)
	(bus)
)
(connector
	(pt 176 72)
	(pt 176 88)
	(bus)
)
(connector
	(text "state[1]" (rect -71 47 -61 82)(font "Arial" )(vertical))
	(pt -56 -8)
	(pt -56 88)
)
(connector
	(pt 176 88)
	(pt -56 88)
)
(connector
	(pt 592 -32)
	(pt 432 -32)
	(bus)
)
(connector
	(pt 592 24)
	(pt 592 -32)
	(bus)
)
(connector
	(text "Out[1]" (rect 240 13 250 42)(font "Arial" )(vertical))
	(pt 232 48)
	(pt 232 -32)
)
(connector
	(text "Out[1..0]" (rect 146 -48 187 -38)(font "Arial" ))
	(pt 136 -32)
	(pt 216 -32)
	(bus)
)
(connector
	(pt 216 -32)
	(pt 232 -32)
	(bus)
)
(connector
	(pt 232 -32)
	(pt 272 -32)
	(bus)
)
(connector
	(text "Out[0]" (rect 200 13 210 42)(font "Arial" )(vertical))
	(pt 216 48)
	(pt 216 -32)
)
(connector
	(pt 224 112)
	(pt 224 128)
)
(connector
	(pt 296 864)
	(pt 208 864)
)
(connector
	(pt 208 864)
	(pt 208 880)
)
(connector
	(pt 216 464)
	(pt 216 440)
)
(connector
	(pt 128 984)
	(pt 0 984)
	(bus)
)
(connector
	(pt -240 8)
	(pt -240 328)
)
(connector
	(pt -256 -8)
	(pt -256 328)
)
(connector
	(pt 0 256)
	(pt 0 568)
	(bus)
)
(connector
	(pt 0 568)
	(pt 0 984)
	(bus)
)
(connector
	(pt -56 -8)
	(pt -24 -8)
)
(connector
	(pt -32 8)
	(pt -24 8)
)
(connector
	(pt -248 392)
	(pt -248 696)
)
(connector
	(pt -248 696)
	(pt 104 696)
)
(connector
	(pt -304 712)
	(pt 104 712)
)
(connector
	(pt -304 496)
	(pt -304 712)
)
(connector
	(pt 168 704)
	(pt 216 704)
)
(connector
	(pt 216 704)
	(pt 216 648)
)
(connector
	(pt 208 128)
	(pt 208 152)
)
(connector
	(pt 320 88)
	(pt 320 208)
	(bus)
)
(connector
	(pt 320 208)
	(pt 320 256)
	(bus)
)
(connector
	(pt -128 256)
	(pt 0 256)
	(bus)
)
(connector
	(pt 0 256)
	(pt 128 256)
	(bus)
)
(connector
	(pt 280 256)
	(pt 320 256)
	(bus)
)
(connector
	(pt 216 440)
	(pt 296 440)
)
(connector
	(pt 208 128)
	(pt 224 128)
)
(connector
	(pt 224 128)
	(pt 296 128)
)
(connector
	(pt 296 128)
	(pt 296 440)
)
(connector
	(pt 296 440)
	(pt 296 864)
)
(connector
	(pt -104 -8)
	(pt -104 344)
)
(connector
	(pt -104 344)
	(pt -80 344)
)
(connector
	(pt -104 -8)
	(pt -56 -8)
)
(connector
	(pt -112 8)
	(pt -112 360)
)
(connector
	(pt -112 360)
	(pt 40 360)
)
(connector
	(pt -112 8)
	(pt -32 8)
)
(connector
	(pt -32 344)
	(pt 40 344)
)
(connector
	(pt 104 352)
	(pt 112 352)
)
(connector
	(pt 112 352)
	(pt 112 384)
)
(connector
	(pt 112 384)
	(pt 128 384)
)
(connector
	(pt 208 392)
	(pt 192 392)
)
(connector
	(pt 208 336)
	(pt 208 392)
)
(connector
	(pt 128 400)
	(pt -304 400)
)
(connector
	(pt -304 -72)
	(pt -304 400)
)
(connector
	(pt -304 400)
	(pt -304 496)
)
(connector
	(pt -216 -8)
	(pt -216 1040)
)
(connector
	(pt -216 1040)
	(pt 16 1040)
)
(connector
	(pt -256 -8)
	(pt -216 -8)
)
(connector
	(pt -216 -8)
	(pt -104 -8)
)
(connector
	(pt -192 8)
	(pt -192 1056)
)
(connector
	(pt -192 1056)
	(pt -96 1056)
)
(connector
	(pt -240 8)
	(pt -192 8)
)
(connector
	(pt -192 8)
	(pt -112 8)
)
(connector
	(pt -48 1056)
	(pt 16 1056)
)
(connector
	(pt -536 888)
	(pt -264 888)
)
(connector
	(pt -536 496)
	(pt -536 888)
)
(connector
	(pt -536 888)
	(pt -536 912)
)
(connector
	(pt 112 1120)
	(pt -264 1120)
)
(connector
	(pt -264 888)
	(pt -264 1120)
)
(connector
	(pt 80 1048)
	(pt 96 1048)
)
(connector
	(pt 96 1048)
	(pt 96 1104)
)
(connector
	(pt 96 1104)
	(pt 112 1104)
)
(connector
	(pt 176 1112)
	(pt 208 1112)
)
(connector
	(pt 208 1112)
	(pt 208 1064)
)
(connector
	(pt -584 296)
	(pt -592 296)
)
(connector
	(pt -504 64)
	(pt -504 128)
)
(connector
	(pt -488 80)
	(pt -488 128)
)
(connector
	(pt -472 96)
	(pt -472 128)
)
(connector
	(pt -456 112)
	(pt -456 128)
)
(connector
	(pt -592 496)
	(pt -592 296)
)
(connector
	(pt -288 256)
	(pt -368 256)
	(bus)
)
(connector
	(pt -576 64)
	(pt -504 64)
)
(connector
	(pt -576 80)
	(pt -488 80)
)
(connector
	(pt -576 96)
	(pt -472 96)
)
(connector
	(pt -576 112)
	(pt -456 112)
)
(connector
	(pt -592 496)
	(pt -536 496)
)
(connector
	(pt -536 496)
	(pt -304 496)
)
(connector
	(pt -696 232)
	(pt -584 232)
)
(connector
	(pt -696 248)
	(pt -584 248)
)
(connector
	(pt -696 264)
	(pt -584 264)
)
(connector
	(pt -696 280)
	(pt -584 280)
)
(junction (pt -536 496))
(junction (pt 0 256))
(junction (pt 0 568))
(junction (pt 320 208))
(junction (pt 344 568))
(junction (pt 384 632))
(junction (pt 176 72))
(junction (pt 216 -32))
(junction (pt 232 -32))
(junction (pt -56 -8))
(junction (pt -32 8))
(junction (pt -304 496))
(junction (pt 224 128))
(junction (pt 296 440))
(junction (pt -104 -8))
(junction (pt -112 8))
(junction (pt -304 400))
(junction (pt -216 -8))
(junction (pt -192 8))
(junction (pt -536 888))
