/*
WARNING: Do NOT edit the input and output ports in this file in a text
editor if you plan to continue editing the block that represents it in
the Block Editor! File corruption is VERY likely to occur.
*/
/*
Copyright (C) 1991-2013 Altera Corporation
Your use of Altera Corporation's design tools, logic functions 
and other software and tools, and its AMPP partner logic 
functions, and any output files from any of the foregoing 
(including device programming or simulation files), and any 
associated documentation or information are expressly subject 
to the terms and conditions of the Altera Program License 
Subscription Agreement, Altera MegaCore Function License 
Agreement, or other applicable license agreement, including, 
without limitation, that your use is for the sole purpose of 
programming logic devices manufactured by Altera and sold by 
Altera or its authorized distributors.  Please refer to the 
applicable agreement for further details.
*/
(header "graphic" (version "1.4"))
(pin
	(input)
	(rect 272 112 288 280)
	(text "INPUT" (rect 6 125 16 153)(font "Arial" (font_size 6))(vertical))
	(text "B" (rect 4 5 16 13)(font "Arial" )(vertical))
	(pt 8 168)
	(drawing
		(line (pt 4 84)(pt 4 109))
		(line (pt 12 84)(pt 12 109))
		(line (pt 8 113)(pt 8 168))
		(line (pt 4 84)(pt 12 84))
		(line (pt 12 109)(pt 8 113))
		(line (pt 4 109)(pt 8 113))
	)
	(rotate270)
	(text "VCC" (rect -1 128 9 148)(font "Arial" (font_size 6))(vertical))
)
(pin
	(input)
	(rect 240 112 256 280)
	(text "INPUT" (rect 6 125 16 153)(font "Arial" (font_size 6))(vertical))
	(text "A" (rect 3 5 15 14)(font "Arial" )(vertical))
	(pt 8 168)
	(drawing
		(line (pt 4 84)(pt 4 109))
		(line (pt 12 84)(pt 12 109))
		(line (pt 8 113)(pt 8 168))
		(line (pt 4 84)(pt 12 84))
		(line (pt 12 109)(pt 8 113))
		(line (pt 4 109)(pt 8 113))
	)
	(rotate270)
	(text "VCC" (rect -1 128 9 148)(font "Arial" (font_size 6))(vertical))
)
(pin
	(input)
	(rect 304 112 320 280)
	(text "INPUT" (rect 6 125 16 153)(font "Arial" (font_size 6))(vertical))
	(text "Cin" (rect 4 5 16 22)(font "Arial" )(vertical))
	(pt 8 168)
	(drawing
		(line (pt 4 84)(pt 4 109))
		(line (pt 12 84)(pt 12 109))
		(line (pt 8 113)(pt 8 168))
		(line (pt 4 84)(pt 12 84))
		(line (pt 12 109)(pt 8 113))
		(line (pt 4 109)(pt 8 113))
	)
	(rotate270)
	(text "VCC" (rect -1 128 9 148)(font "Arial" (font_size 6))(vertical))
)
(pin
	(output)
	(rect 584 328 760 344)
	(text "OUTPUT" (rect 1 0 39 10)(font "Arial" (font_size 6)))
	(text "S" (rect 90 0 97 12)(font "Arial" ))
	(pt 0 8)
	(drawing
		(line (pt 0 8)(pt 52 8))
		(line (pt 52 4)(pt 78 4))
		(line (pt 52 12)(pt 78 12))
		(line (pt 52 12)(pt 52 4))
		(line (pt 78 4)(pt 82 8))
		(line (pt 82 8)(pt 78 12))
		(line (pt 78 12)(pt 82 8))
	)
)
(pin
	(output)
	(rect 584 456 760 472)
	(text "OUTPUT" (rect 1 0 39 10)(font "Arial" (font_size 6)))
	(text "Cout" (rect 90 0 113 12)(font "Arial" ))
	(pt 0 8)
	(drawing
		(line (pt 0 8)(pt 52 8))
		(line (pt 52 4)(pt 78 4))
		(line (pt 52 12)(pt 78 12))
		(line (pt 52 12)(pt 52 4))
		(line (pt 78 4)(pt 82 8))
		(line (pt 82 8)(pt 78 12))
		(line (pt 78 12)(pt 82 8))
	)
)
(symbol
	(rect 344 280 408 328)
	(text "XOR" (rect 1 0 21 10)(font "Arial" (font_size 6)))
	(text "inst" (rect 3 37 20 49)(font "Arial" ))
	(port
		(pt 0 16)
		(input)
		(text "IN1" (rect 2 7 19 19)(font "Courier New" (bold))(invisible))
		(text "IN1" (rect 2 7 19 19)(font "Courier New" (bold))(invisible))
		(line (pt 0 16)(pt 11 16))
	)
	(port
		(pt 0 32)
		(input)
		(text "IN2" (rect 2 23 19 35)(font "Courier New" (bold))(invisible))
		(text "IN2" (rect 2 23 19 35)(font "Courier New" (bold))(invisible))
		(line (pt 0 32)(pt 11 32))
	)
	(port
		(pt 64 24)
		(output)
		(text "OUT" (rect 48 15 65 27)(font "Courier New" (bold))(invisible))
		(text "OUT" (rect 48 15 65 27)(font "Courier New" (bold))(invisible))
		(line (pt 49 24)(pt 64 24))
	)
	(drawing
		(line (pt 14 13)(pt 25 13))
		(line (pt 14 36)(pt 25 36))
		(arc (pt 7 29)(pt 7 19)(rect -14 8 19 41))
		(arc (pt 49 24)(pt 25 13)(rect -6 13 57 76))
		(arc (pt 25 35)(pt 49 24)(rect -6 -27 57 36))
		(arc (pt 8 36)(pt 8 12)(rect -21 7 14 42))
	)
)
(symbol
	(rect 424 312 488 360)
	(text "XOR" (rect 1 0 21 10)(font "Arial" (font_size 6)))
	(text "inst1" (rect 3 37 26 49)(font "Arial" ))
	(port
		(pt 0 16)
		(input)
		(text "IN1" (rect 2 7 19 19)(font "Courier New" (bold))(invisible))
		(text "IN1" (rect 2 7 19 19)(font "Courier New" (bold))(invisible))
		(line (pt 0 16)(pt 11 16))
	)
	(port
		(pt 0 32)
		(input)
		(text "IN2" (rect 2 23 19 35)(font "Courier New" (bold))(invisible))
		(text "IN2" (rect 2 23 19 35)(font "Courier New" (bold))(invisible))
		(line (pt 0 32)(pt 11 32))
	)
	(port
		(pt 64 24)
		(output)
		(text "OUT" (rect 48 15 65 27)(font "Courier New" (bold))(invisible))
		(text "OUT" (rect 48 15 65 27)(font "Courier New" (bold))(invisible))
		(line (pt 49 24)(pt 64 24))
	)
	(drawing
		(line (pt 14 13)(pt 25 13))
		(line (pt 14 36)(pt 25 36))
		(arc (pt 7 29)(pt 7 19)(rect -14 8 19 41))
		(arc (pt 49 24)(pt 25 13)(rect -6 13 57 76))
		(arc (pt 25 35)(pt 49 24)(rect -6 -27 57 36))
		(arc (pt 8 36)(pt 8 12)(rect -21 7 14 42))
	)
)
(symbol
	(rect 344 384 408 432)
	(text "OR2" (rect 1 0 19 10)(font "Arial" (font_size 6)))
	(text "inst2" (rect 3 37 26 49)(font "Arial" ))
	(port
		(pt 0 32)
		(input)
		(text "IN2" (rect 2 23 19 35)(font "Courier New" (bold))(invisible))
		(text "IN2" (rect 2 23 19 35)(font "Courier New" (bold))(invisible))
		(line (pt 0 32)(pt 15 32))
	)
	(port
		(pt 0 16)
		(input)
		(text "IN1" (rect 2 7 19 19)(font "Courier New" (bold))(invisible))
		(text "IN1" (rect 2 7 19 19)(font "Courier New" (bold))(invisible))
		(line (pt 0 16)(pt 15 16))
	)
	(port
		(pt 64 24)
		(output)
		(text "OUT" (rect 48 15 65 27)(font "Courier New" (bold))(invisible))
		(text "OUT" (rect 48 15 65 27)(font "Courier New" (bold))(invisible))
		(line (pt 48 24)(pt 64 24))
	)
	(drawing
		(line (pt 14 36)(pt 25 36))
		(line (pt 14 13)(pt 25 13))
		(arc (pt 7 29)(pt 7 19)(rect -14 8 19 41))
		(arc (pt 49 24)(pt 25 13)(rect -6 13 57 76))
		(arc (pt 25 35)(pt 49 24)(rect -6 -27 57 36))
	)
)
(symbol
	(rect 424 416 488 464)
	(text "AND2" (rect 1 0 25 10)(font "Arial" (font_size 6)))
	(text "inst3" (rect 3 37 26 49)(font "Arial" ))
	(port
		(pt 0 16)
		(input)
		(text "IN1" (rect 2 7 19 19)(font "Courier New" (bold))(invisible))
		(text "IN1" (rect 2 7 19 19)(font "Courier New" (bold))(invisible))
		(line (pt 0 16)(pt 14 16))
	)
	(port
		(pt 0 32)
		(input)
		(text "IN2" (rect 2 23 19 35)(font "Courier New" (bold))(invisible))
		(text "IN2" (rect 2 23 19 35)(font "Courier New" (bold))(invisible))
		(line (pt 0 32)(pt 14 32))
	)
	(port
		(pt 64 24)
		(output)
		(text "OUT" (rect 48 15 65 27)(font "Courier New" (bold))(invisible))
		(text "OUT" (rect 48 15 65 27)(font "Courier New" (bold))(invisible))
		(line (pt 42 24)(pt 64 24))
	)
	(drawing
		(line (pt 14 12)(pt 30 12))
		(line (pt 14 37)(pt 31 37))
		(line (pt 14 12)(pt 14 37))
		(arc (pt 31 37)(pt 30 12)(rect 18 12 43 37))
	)
)
(symbol
	(rect 424 472 488 520)
	(text "AND2" (rect 1 0 25 10)(font "Arial" (font_size 6)))
	(text "inst4" (rect 3 37 26 49)(font "Arial" ))
	(port
		(pt 0 16)
		(input)
		(text "IN1" (rect 2 7 19 19)(font "Courier New" (bold))(invisible))
		(text "IN1" (rect 2 7 19 19)(font "Courier New" (bold))(invisible))
		(line (pt 0 16)(pt 14 16))
	)
	(port
		(pt 0 32)
		(input)
		(text "IN2" (rect 2 23 19 35)(font "Courier New" (bold))(invisible))
		(text "IN2" (rect 2 23 19 35)(font "Courier New" (bold))(invisible))
		(line (pt 0 32)(pt 14 32))
	)
	(port
		(pt 64 24)
		(output)
		(text "OUT" (rect 48 15 65 27)(font "Courier New" (bold))(invisible))
		(text "OUT" (rect 48 15 65 27)(font "Courier New" (bold))(invisible))
		(line (pt 42 24)(pt 64 24))
	)
	(drawing
		(line (pt 14 12)(pt 30 12))
		(line (pt 14 37)(pt 31 37))
		(line (pt 14 12)(pt 14 37))
		(arc (pt 31 37)(pt 30 12)(rect 18 12 43 37))
	)
)
(symbol
	(rect 504 440 568 488)
	(text "OR2" (rect 1 0 19 10)(font "Arial" (font_size 6)))
	(text "inst5" (rect 3 37 26 49)(font "Arial" ))
	(port
		(pt 0 32)
		(input)
		(text "IN2" (rect 2 23 19 35)(font "Courier New" (bold))(invisible))
		(text "IN2" (rect 2 23 19 35)(font "Courier New" (bold))(invisible))
		(line (pt 0 32)(pt 15 32))
	)
	(port
		(pt 0 16)
		(input)
		(text "IN1" (rect 2 7 19 19)(font "Courier New" (bold))(invisible))
		(text "IN1" (rect 2 7 19 19)(font "Courier New" (bold))(invisible))
		(line (pt 0 16)(pt 15 16))
	)
	(port
		(pt 64 24)
		(output)
		(text "OUT" (rect 48 15 65 27)(font "Courier New" (bold))(invisible))
		(text "OUT" (rect 48 15 65 27)(font "Courier New" (bold))(invisible))
		(line (pt 48 24)(pt 64 24))
	)
	(drawing
		(line (pt 14 36)(pt 25 36))
		(line (pt 14 13)(pt 25 13))
		(arc (pt 7 29)(pt 7 19)(rect -14 8 19 41))
		(arc (pt 49 24)(pt 25 13)(rect -6 13 57 76))
		(arc (pt 25 35)(pt 49 24)(rect -6 -27 57 36))
	)
)
(connector
	(pt 248 296)
	(pt 344 296)
)
(connector
	(pt 280 312)
	(pt 344 312)
)
(connector
	(pt 424 344)
	(pt 312 344)
)
(connector
	(pt 408 304)
	(pt 416 304)
)
(connector
	(pt 416 304)
	(pt 416 328)
)
(connector
	(pt 416 328)
	(pt 424 328)
)
(connector
	(pt 408 408)
	(pt 416 408)
)
(connector
	(pt 416 408)
	(pt 416 432)
)
(connector
	(pt 416 432)
	(pt 424 432)
)
(connector
	(pt 488 440)
	(pt 496 440)
)
(connector
	(pt 496 440)
	(pt 496 456)
)
(connector
	(pt 496 456)
	(pt 504 456)
)
(connector
	(pt 488 496)
	(pt 496 496)
)
(connector
	(pt 496 496)
	(pt 496 472)
)
(connector
	(pt 496 472)
	(pt 504 472)
)
(connector
	(pt 424 448)
	(pt 312 448)
)
(connector
	(pt 344 400)
	(pt 248 400)
)
(connector
	(pt 344 416)
	(pt 280 416)
)
(connector
	(pt 424 488)
	(pt 248 488)
)
(connector
	(pt 424 504)
	(pt 280 504)
)
(connector
	(pt 488 336)
	(pt 584 336)
)
(connector
	(pt 568 464)
	(pt 584 464)
)
(connector
	(pt 312 280)
	(pt 312 344)
)
(connector
	(pt 312 344)
	(pt 312 448)
)
(connector
	(pt 248 280)
	(pt 248 296)
)
(connector
	(pt 248 296)
	(pt 248 400)
)
(connector
	(pt 248 400)
	(pt 248 488)
)
(connector
	(pt 280 280)
	(pt 280 312)
)
(connector
	(pt 280 312)
	(pt 280 416)
)
(connector
	(pt 280 416)
	(pt 280 504)
)
(junction (pt 312 344))
(junction (pt 248 296))
(junction (pt 280 312))
(junction (pt 248 400))
(junction (pt 280 416))
