/*
WARNING: Do NOT edit the input and output ports in this file in a text
editor if you plan to continue editing the block that represents it in
the Block Editor! File corruption is VERY likely to occur.
*/
/*
Copyright (C) 1991-2013 Altera Corporation
Your use of Altera Corporation's design tools, logic functions 
and other software and tools, and its AMPP partner logic 
functions, and any output files from any of the foregoing 
(including device programming or simulation files), and any 
associated documentation or information are expressly subject 
to the terms and conditions of the Altera Program License 
Subscription Agreement, Altera MegaCore Function License 
Agreement, or other applicable license agreement, including, 
without limitation, that your use is for the sole purpose of 
programming logic devices manufactured by Altera and sold by 
Altera or its authorized distributors.  Please refer to the 
applicable agreement for further details.
*/
(header "graphic" (version "1.4"))
(pin
	(input)
	(rect 512 656 528 824)
	(text "INPUT" (rect 0 14 9 43)(font "Arial" (font_size 6))(vertical))
	(text "clock" (rect 0 108 10 133)(font "Arial" )(vertical))
	(pt 8 0)
	(drawing
		(line (pt 12 84)(pt 12 59))
		(line (pt 4 84)(pt 4 59))
		(line (pt 8 55)(pt 8 0))
		(line (pt 12 84)(pt 4 84))
		(line (pt 4 59)(pt 8 55))
		(line (pt 12 59)(pt 8 55))
	)
	(rotate90)
	(text "VCC" (rect 7 19 16 40)(font "Arial" (font_size 6))(vertical))
)
(pin
	(input)
	(rect 816 288 984 304)
	(text "INPUT" (rect 14 0 43 9)(font "Arial" (font_size 6)))
	(text "input[1..0]" (rect 115 0 163 10)(font "Arial" ))
	(pt 0 8)
	(drawing
		(line (pt 84 12)(pt 59 12))
		(line (pt 84 4)(pt 59 4))
		(line (pt 55 8)(pt 0 8))
		(line (pt 84 12)(pt 84 4))
		(line (pt 59 4)(pt 55 8))
		(line (pt 59 12)(pt 55 8))
	)
	(flipy)
	(text "VCC" (rect 19 7 40 16)(font "Arial" (font_size 6)))
)
(pin
	(output)
	(rect 632 656 648 832)
	(text "OUTPUT" (rect 7 1 16 41)(font "Arial" (font_size 6))(vertical))
	(text "state[0]" (rect 6 90 16 125)(font "Arial" )(vertical))
	(pt 8 0)
	(drawing
		(line (pt 8 0)(pt 8 52))
		(line (pt 12 52)(pt 12 78))
		(line (pt 4 52)(pt 4 78))
		(line (pt 4 52)(pt 12 52))
		(line (pt 12 78)(pt 8 82))
		(line (pt 8 82)(pt 4 78))
		(line (pt 4 78)(pt 8 82))
	)
	(rotate270)
)
(pin
	(output)
	(rect 664 656 680 832)
	(text "OUTPUT" (rect 7 1 16 41)(font "Arial" (font_size 6))(vertical))
	(text "state[1]" (rect 7 89 17 124)(font "Arial" )(vertical))
	(pt 8 0)
	(drawing
		(line (pt 8 0)(pt 8 52))
		(line (pt 12 52)(pt 12 78))
		(line (pt 4 52)(pt 4 78))
		(line (pt 4 52)(pt 12 52))
		(line (pt 12 78)(pt 8 82))
		(line (pt 8 82)(pt 4 78))
		(line (pt 4 78)(pt 8 82))
	)
	(rotate270)
)
(symbol
	(rect 560 344 624 424)
	(text "DFF" (rect 1 0 21 9)(font "Arial" (font_size 6)))
	(text "inst2" (rect 3 68 26 78)(font "Arial" ))
	(port
		(pt 32 80)
		(input)
		(text "CLRN" (rect 21 59 49 70)(font "Courier New" (bold)))
		(text "CLRN" (rect 21 58 49 69)(font "Courier New" (bold)))
		(line (pt 32 80)(pt 32 76))
	)
	(port
		(pt 0 40)
		(input)
		(text "CLK" (rect 3 29 25 40)(font "Courier New" (bold))(invisible))
		(text "CLK" (rect 3 29 25 40)(font "Courier New" (bold))(invisible))
		(line (pt 0 40)(pt 12 40))
	)
	(port
		(pt 0 24)
		(input)
		(text "D" (rect 14 20 22 31)(font "Courier New" (bold)))
		(text "D" (rect 14 20 22 31)(font "Courier New" (bold)))
		(line (pt 0 24)(pt 12 24))
	)
	(port
		(pt 32 0)
		(input)
		(text "PRN" (rect 24 13 46 24)(font "Courier New" (bold)))
		(text "PRN" (rect 24 11 46 22)(font "Courier New" (bold)))
		(line (pt 32 4)(pt 32 0))
	)
	(port
		(pt 64 24)
		(output)
		(text "Q" (rect 45 20 54 31)(font "Courier New" (bold)))
		(text "Q" (rect 45 20 54 31)(font "Courier New" (bold)))
		(line (pt 52 24)(pt 64 24))
	)
	(drawing
		(line (pt 12 12)(pt 52 12))
		(line (pt 12 68)(pt 52 68))
		(line (pt 52 68)(pt 52 12))
		(line (pt 12 68)(pt 12 12))
		(line (pt 19 40)(pt 12 47))
		(line (pt 12 32)(pt 20 40))
		(circle (rect 28 4 36 12))
		(circle (rect 28 68 36 76))
	)
)
(symbol
	(rect 560 472 624 552)
	(text "DFF" (rect 1 0 21 9)(font "Arial" (font_size 6)))
	(text "inst3" (rect 3 68 26 78)(font "Arial" ))
	(port
		(pt 32 80)
		(input)
		(text "CLRN" (rect 21 59 49 70)(font "Courier New" (bold)))
		(text "CLRN" (rect 21 58 49 69)(font "Courier New" (bold)))
		(line (pt 32 80)(pt 32 76))
	)
	(port
		(pt 0 40)
		(input)
		(text "CLK" (rect 3 29 25 40)(font "Courier New" (bold))(invisible))
		(text "CLK" (rect 3 29 25 40)(font "Courier New" (bold))(invisible))
		(line (pt 0 40)(pt 12 40))
	)
	(port
		(pt 0 24)
		(input)
		(text "D" (rect 14 20 22 31)(font "Courier New" (bold)))
		(text "D" (rect 14 20 22 31)(font "Courier New" (bold)))
		(line (pt 0 24)(pt 12 24))
	)
	(port
		(pt 32 0)
		(input)
		(text "PRN" (rect 24 13 46 24)(font "Courier New" (bold)))
		(text "PRN" (rect 24 11 46 22)(font "Courier New" (bold)))
		(line (pt 32 4)(pt 32 0))
	)
	(port
		(pt 64 24)
		(output)
		(text "Q" (rect 45 20 54 31)(font "Courier New" (bold)))
		(text "Q" (rect 45 20 54 31)(font "Courier New" (bold)))
		(line (pt 52 24)(pt 64 24))
	)
	(drawing
		(line (pt 12 12)(pt 52 12))
		(line (pt 12 68)(pt 52 68))
		(line (pt 52 68)(pt 52 12))
		(line (pt 12 68)(pt 12 12))
		(line (pt 19 40)(pt 12 47))
		(line (pt 12 32)(pt 20 40))
		(circle (rect 28 4 36 12))
		(circle (rect 28 68 36 76))
	)
)
(symbol
	(rect 560 144 720 224)
	(text "statesrom" (rect 108 70 155 80)(font "Arial" ))
	(text "inst" (rect 135 6 152 16)(font "Arial" ))
	(port
		(pt 160 48)
		(input)
		(text "In[3..0]" (rect 0 0 33 10)(font "Arial" ))
		(text "In[3..0]" (rect 106 43 139 53)(font "Arial" ))
		(line (pt 160 48)(pt 144 48)(line_width 3))
	)
	(port
		(pt 0 48)
		(output)
		(text "Out[1..0]" (rect 0 0 41 10)(font "Arial" ))
		(text "Out[1..0]" (rect 14 43 55 53)(font "Arial" ))
		(line (pt 0 48)(pt 16 48)(line_width 3))
	)
	(drawing
		(rectangle (rect 16 16 144 64))
	)
	(rotate180)
)
(connector
	(pt 560 512)
	(pt 520 512)
)
(connector
	(pt 560 384)
	(pt 520 384)
)
(connector
	(text "Out[1]" (rect 498 360 527 370)(font "Arial" ))
	(pt 560 368)
	(pt 488 368)
)
(connector
	(text "Out[0]" (rect 498 480 527 490)(font "Arial" ))
	(pt 560 496)
	(pt 488 496)
)
(connector
	(text "Out[1..0]" (rect 472 451 482 492)(font "Arial" )(vertical))
	(pt 488 368)
	(pt 488 496)
	(bus)
)
(connector
	(pt 520 384)
	(pt 520 512)
)
(connector
	(pt 520 512)
	(pt 520 656)
)
(connector
	(pt 520 656)
	(pt 520 664)
)
(connector
	(pt 488 192)
	(pt 560 192)
	(bus)
)
(connector
	(pt 488 192)
	(pt 488 368)
	(bus)
)
(connector
	(pt 720 192)
	(pt 736 192)
	(bus)
)
(connector
	(text "In[3..0]" (rect 744 458 754 491)(font "Arial" )(vertical))
	(pt 736 368)
	(pt 736 496)
	(bus)
)
(connector
	(pt 624 368)
	(pt 672 368)
)
(connector
	(text "In[3]" (rect 690 352 711 362)(font "Arial" ))
	(pt 672 368)
	(pt 736 368)
)
(connector
	(pt 624 496)
	(pt 640 496)
)
(connector
	(text "In[2]" (rect 650 488 671 498)(font "Arial" ))
	(pt 640 496)
	(pt 736 496)
)
(connector
	(pt 736 192)
	(pt 736 296)
	(bus)
)
(connector
	(pt 736 296)
	(pt 736 368)
	(bus)
)
(connector
	(text "In[1..0]" (rect 754 280 787 290)(font "Arial" ))
	(pt 816 296)
	(pt 736 296)
	(bus)
)
(connector
	(pt 640 496)
	(pt 640 656)
)
(connector
	(pt 672 368)
	(pt 672 656)
)
(junction (pt 520 512))
(junction (pt 488 368))
(junction (pt 520 656))
(junction (pt 736 368))
(junction (pt 672 368))
(junction (pt 640 496))
(junction (pt 736 296))
