 1 0 1 1
1
0
1
1

0001 = 1 C/0111 L/0111
0010 = 2 C/0111 L/1011
0011 = 3 C/0111 L/1101
1010 = A C/0111 L/1110

0100 = 4 C/1011 L/1011
0101 = 5 C/1011 L/1011
0110 = 6 C/1011 L/1011
1011 = B C/1011 L/1011
0111 = 7 C/1011 L/1011
1000 = 8 C/1011 L/1011
1001 = 9 C/1011 L/1011
1100 = C C/1011 L/1011
1110 = * C/1011 L/1011
0000 = 0 C/1011 L/1011
1111 = # C/1011 L/1011
1101 = D C/1011 L/1011
