/*
WARNING: Do NOT edit the input and output ports in this file in a text
editor if you plan to continue editing the block that represents it in
the Block Editor! File corruption is VERY likely to occur.
*/
/*
Copyright (C) 1991-2013 Altera Corporation
Your use of Altera Corporation's design tools, logic functions 
and other software and tools, and its AMPP partner logic 
functions, and any output files from any of the foregoing 
(including device programming or simulation files), and any 
associated documentation or information are expressly subject 
to the terms and conditions of the Altera Program License 
Subscription Agreement, Altera MegaCore Function License 
Agreement, or other applicable license agreement, including, 
without limitation, that your use is for the sole purpose of 
programming logic devices manufactured by Altera and sold by 
Altera or its authorized distributors.  Please refer to the 
applicable agreement for further details.
*/
(header "graphic" (version "1.4"))
(pin
	(input)
	(rect 88 120 264 136)
	(text "INPUT" (rect 133 0 161 10)(font "Arial" (font_size 6)))
	(text "Clk" (rect 9 0 25 12)(font "Arial" ))
	(pt 176 8)
	(drawing
		(line (pt 92 12)(pt 117 12))
		(line (pt 92 4)(pt 117 4))
		(line (pt 121 8)(pt 176 8))
		(line (pt 92 12)(pt 92 4))
		(line (pt 117 4)(pt 121 8))
		(line (pt 117 12)(pt 121 8))
	)
	(text "VCC" (rect 136 7 156 17)(font "Arial" (font_size 6)))
)
(pin
	(input)
	(rect 88 248 264 264)
	(text "INPUT" (rect 133 0 161 10)(font "Arial" (font_size 6)))
	(text "BranchNotEqual" (rect 9 0 88 12)(font "Arial" ))
	(pt 176 8)
	(drawing
		(line (pt 92 12)(pt 117 12))
		(line (pt 92 4)(pt 117 4))
		(line (pt 121 8)(pt 176 8))
		(line (pt 92 12)(pt 92 4))
		(line (pt 117 4)(pt 121 8))
		(line (pt 117 12)(pt 121 8))
	)
	(text "VCC" (rect 136 7 156 17)(font "Arial" (font_size 6)))
)
(pin
	(input)
	(rect 88 152 264 168)
	(text "INPUT" (rect 133 0 161 10)(font "Arial" (font_size 6)))
	(text "BranchEqual" (rect 9 0 70 12)(font "Arial" ))
	(pt 176 8)
	(drawing
		(line (pt 92 12)(pt 117 12))
		(line (pt 92 4)(pt 117 4))
		(line (pt 121 8)(pt 176 8))
		(line (pt 92 12)(pt 92 4))
		(line (pt 117 4)(pt 121 8))
		(line (pt 117 12)(pt 121 8))
	)
	(text "VCC" (rect 136 7 156 17)(font "Arial" (font_size 6)))
)
(pin
	(input)
	(rect 80 384 256 400)
	(text "INPUT" (rect 133 0 161 10)(font "Arial" (font_size 6)))
	(text "MemRead" (rect 9 0 58 12)(font "Arial" ))
	(pt 176 8)
	(drawing
		(line (pt 92 12)(pt 117 12))
		(line (pt 92 4)(pt 117 4))
		(line (pt 121 8)(pt 176 8))
		(line (pt 92 12)(pt 92 4))
		(line (pt 117 4)(pt 121 8))
		(line (pt 117 12)(pt 121 8))
	)
	(text "VCC" (rect 136 7 156 17)(font "Arial" (font_size 6)))
)
(pin
	(input)
	(rect 80 520 256 536)
	(text "INPUT" (rect 133 0 161 10)(font "Arial" (font_size 6)))
	(text "MemWrite" (rect 9 0 58 12)(font "Arial" ))
	(pt 176 8)
	(drawing
		(line (pt 92 12)(pt 117 12))
		(line (pt 92 4)(pt 117 4))
		(line (pt 121 8)(pt 176 8))
		(line (pt 92 12)(pt 92 4))
		(line (pt 117 4)(pt 121 8))
		(line (pt 117 12)(pt 121 8))
	)
	(text "VCC" (rect 136 7 156 17)(font "Arial" (font_size 6)))
)
(pin
	(input)
	(rect 88 88 264 104)
	(text "INPUT" (rect 133 0 161 10)(font "Arial" (font_size 6)))
	(text "WE" (rect 9 0 26 12)(font "Arial" ))
	(pt 176 8)
	(drawing
		(line (pt 92 12)(pt 117 12))
		(line (pt 92 4)(pt 117 4))
		(line (pt 121 8)(pt 176 8))
		(line (pt 92 12)(pt 92 4))
		(line (pt 117 4)(pt 121 8))
		(line (pt 117 12)(pt 121 8))
	)
	(text "VCC" (rect 136 7 156 17)(font "Arial" (font_size 6)))
)
(pin
	(input)
	(rect 72 656 248 672)
	(text "INPUT" (rect 133 0 161 10)(font "Arial" (font_size 6)))
	(text "Jump" (rect 9 0 36 12)(font "Arial" ))
	(pt 176 8)
	(drawing
		(line (pt 92 12)(pt 117 12))
		(line (pt 92 4)(pt 117 4))
		(line (pt 121 8)(pt 176 8))
		(line (pt 92 12)(pt 92 4))
		(line (pt 117 4)(pt 121 8))
		(line (pt 117 12)(pt 121 8))
	)
	(text "VCC" (rect 136 7 156 17)(font "Arial" (font_size 6)))
)
(pin
	(input)
	(rect 88 56 256 72)
	(text "INPUT" (rect 125 0 153 10)(font "Arial" (font_size 6)))
	(text "Flush" (rect 5 0 32 12)(font "Arial" ))
	(pt 168 8)
	(drawing
		(line (pt 84 12)(pt 109 12))
		(line (pt 84 4)(pt 109 4))
		(line (pt 113 8)(pt 168 8))
		(line (pt 84 12)(pt 84 4))
		(line (pt 109 4)(pt 113 8))
		(line (pt 109 12)(pt 113 8))
	)
	(text "GND" (rect 128 7 149 17)(font "Arial" (font_size 6)))
)
(pin
	(output)
	(rect 760 504 936 520)
	(text "OUTPUT" (rect 1 0 39 10)(font "Arial" (font_size 6)))
	(text "MemWriteResult" (rect 90 0 171 12)(font "Arial" ))
	(pt 0 8)
	(drawing
		(line (pt 0 8)(pt 52 8))
		(line (pt 52 4)(pt 78 4))
		(line (pt 52 12)(pt 78 12))
		(line (pt 52 12)(pt 52 4))
		(line (pt 78 4)(pt 82 8))
		(line (pt 82 8)(pt 78 12))
		(line (pt 78 12)(pt 82 8))
	)
)
(pin
	(output)
	(rect 760 368 936 384)
	(text "OUTPUT" (rect 1 0 39 10)(font "Arial" (font_size 6)))
	(text "MemReadResult" (rect 90 0 171 12)(font "Arial" ))
	(pt 0 8)
	(drawing
		(line (pt 0 8)(pt 52 8))
		(line (pt 52 4)(pt 78 4))
		(line (pt 52 12)(pt 78 12))
		(line (pt 52 12)(pt 52 4))
		(line (pt 78 4)(pt 82 8))
		(line (pt 82 8)(pt 78 12))
		(line (pt 78 12)(pt 82 8))
	)
)
(pin
	(output)
	(rect 736 232 912 248)
	(text "OUTPUT" (rect 1 0 39 10)(font "Arial" (font_size 6)))
	(text "BranchNotEqualResult" (rect 90 0 200 12)(font "Arial" ))
	(pt 0 8)
	(drawing
		(line (pt 0 8)(pt 52 8))
		(line (pt 52 4)(pt 78 4))
		(line (pt 52 12)(pt 78 12))
		(line (pt 52 12)(pt 52 4))
		(line (pt 78 4)(pt 82 8))
		(line (pt 82 8)(pt 78 12))
		(line (pt 78 12)(pt 82 8))
	)
)
(pin
	(output)
	(rect 760 96 936 112)
	(text "OUTPUT" (rect 1 0 39 10)(font "Arial" (font_size 6)))
	(text "BranchEqualResult" (rect 90 0 183 12)(font "Arial" ))
	(pt 0 8)
	(drawing
		(line (pt 0 8)(pt 52 8))
		(line (pt 52 4)(pt 78 4))
		(line (pt 52 12)(pt 78 12))
		(line (pt 52 12)(pt 52 4))
		(line (pt 78 4)(pt 82 8))
		(line (pt 82 8)(pt 78 12))
		(line (pt 78 12)(pt 82 8))
	)
)
(pin
	(output)
	(rect 760 640 936 656)
	(text "OUTPUT" (rect 1 0 39 10)(font "Arial" (font_size 6)))
	(text "JumpResult" (rect 90 0 149 12)(font "Arial" ))
	(pt 0 8)
	(drawing
		(line (pt 0 8)(pt 52 8))
		(line (pt 52 4)(pt 78 4))
		(line (pt 52 12)(pt 78 12))
		(line (pt 52 12)(pt 52 4))
		(line (pt 78 4)(pt 82 8))
		(line (pt 82 8)(pt 78 12))
		(line (pt 78 12)(pt 82 8))
	)
)
(symbol
	(rect 520 72 616 200)
	(text "ShiftRegister1" (rect 5 0 85 14)(font "Arial" (font_size 8)))
	(text "inst" (rect 8 112 25 124)(font "Arial" ))
	(port
		(pt 0 32)
		(input)
		(text "Flush" (rect 0 0 30 14)(font "Arial" (font_size 8)))
		(text "Flush" (rect 21 27 51 41)(font "Arial" (font_size 8)))
		(line (pt 0 32)(pt 16 32))
	)
	(port
		(pt 0 48)
		(input)
		(text "data" (rect 0 0 24 14)(font "Arial" (font_size 8)))
		(text "data" (rect 21 43 45 57)(font "Arial" (font_size 8)))
		(line (pt 0 48)(pt 16 48))
	)
	(port
		(pt 0 64)
		(input)
		(text "Clk" (rect 0 0 16 14)(font "Arial" (font_size 8)))
		(text "Clk" (rect 21 59 37 73)(font "Arial" (font_size 8)))
		(line (pt 0 64)(pt 16 64))
	)
	(port
		(pt 0 80)
		(input)
		(text "WE" (rect 0 0 18 14)(font "Arial" (font_size 8)))
		(text "WE" (rect 21 75 39 89)(font "Arial" (font_size 8)))
		(line (pt 0 80)(pt 16 80))
	)
	(port
		(pt 96 32)
		(output)
		(text "Q" (rect 0 0 9 14)(font "Arial" (font_size 8)))
		(text "Q" (rect 66 27 75 41)(font "Arial" (font_size 8)))
		(line (pt 96 32)(pt 80 32))
	)
	(drawing
		(rectangle (rect 16 16 80 112))
	)
)
(symbol
	(rect 520 208 616 336)
	(text "ShiftRegister1" (rect 5 0 85 14)(font "Arial" (font_size 8)))
	(text "inst1" (rect 8 112 31 124)(font "Arial" ))
	(port
		(pt 0 32)
		(input)
		(text "Flush" (rect 0 0 30 14)(font "Arial" (font_size 8)))
		(text "Flush" (rect 21 27 51 41)(font "Arial" (font_size 8)))
		(line (pt 0 32)(pt 16 32))
	)
	(port
		(pt 0 48)
		(input)
		(text "data" (rect 0 0 24 14)(font "Arial" (font_size 8)))
		(text "data" (rect 21 43 45 57)(font "Arial" (font_size 8)))
		(line (pt 0 48)(pt 16 48))
	)
	(port
		(pt 0 64)
		(input)
		(text "Clk" (rect 0 0 16 14)(font "Arial" (font_size 8)))
		(text "Clk" (rect 21 59 37 73)(font "Arial" (font_size 8)))
		(line (pt 0 64)(pt 16 64))
	)
	(port
		(pt 0 80)
		(input)
		(text "WE" (rect 0 0 18 14)(font "Arial" (font_size 8)))
		(text "WE" (rect 21 75 39 89)(font "Arial" (font_size 8)))
		(line (pt 0 80)(pt 16 80))
	)
	(port
		(pt 96 32)
		(output)
		(text "Q" (rect 0 0 9 14)(font "Arial" (font_size 8)))
		(text "Q" (rect 66 27 75 41)(font "Arial" (font_size 8)))
		(line (pt 96 32)(pt 80 32))
	)
	(drawing
		(rectangle (rect 16 16 80 112))
	)
)
(symbol
	(rect 520 344 616 472)
	(text "ShiftRegister1" (rect 5 0 85 14)(font "Arial" (font_size 8)))
	(text "inst2" (rect 8 112 31 124)(font "Arial" ))
	(port
		(pt 0 32)
		(input)
		(text "Flush" (rect 0 0 30 14)(font "Arial" (font_size 8)))
		(text "Flush" (rect 21 27 51 41)(font "Arial" (font_size 8)))
		(line (pt 0 32)(pt 16 32))
	)
	(port
		(pt 0 48)
		(input)
		(text "data" (rect 0 0 24 14)(font "Arial" (font_size 8)))
		(text "data" (rect 21 43 45 57)(font "Arial" (font_size 8)))
		(line (pt 0 48)(pt 16 48))
	)
	(port
		(pt 0 64)
		(input)
		(text "Clk" (rect 0 0 16 14)(font "Arial" (font_size 8)))
		(text "Clk" (rect 21 59 37 73)(font "Arial" (font_size 8)))
		(line (pt 0 64)(pt 16 64))
	)
	(port
		(pt 0 80)
		(input)
		(text "WE" (rect 0 0 18 14)(font "Arial" (font_size 8)))
		(text "WE" (rect 21 75 39 89)(font "Arial" (font_size 8)))
		(line (pt 0 80)(pt 16 80))
	)
	(port
		(pt 96 32)
		(output)
		(text "Q" (rect 0 0 9 14)(font "Arial" (font_size 8)))
		(text "Q" (rect 66 27 75 41)(font "Arial" (font_size 8)))
		(line (pt 96 32)(pt 80 32))
	)
	(drawing
		(rectangle (rect 16 16 80 112))
	)
)
(symbol
	(rect 520 480 616 608)
	(text "ShiftRegister1" (rect 5 0 85 14)(font "Arial" (font_size 8)))
	(text "inst3" (rect 8 112 31 124)(font "Arial" ))
	(port
		(pt 0 32)
		(input)
		(text "Flush" (rect 0 0 30 14)(font "Arial" (font_size 8)))
		(text "Flush" (rect 21 27 51 41)(font "Arial" (font_size 8)))
		(line (pt 0 32)(pt 16 32))
	)
	(port
		(pt 0 48)
		(input)
		(text "data" (rect 0 0 24 14)(font "Arial" (font_size 8)))
		(text "data" (rect 21 43 45 57)(font "Arial" (font_size 8)))
		(line (pt 0 48)(pt 16 48))
	)
	(port
		(pt 0 64)
		(input)
		(text "Clk" (rect 0 0 16 14)(font "Arial" (font_size 8)))
		(text "Clk" (rect 21 59 37 73)(font "Arial" (font_size 8)))
		(line (pt 0 64)(pt 16 64))
	)
	(port
		(pt 0 80)
		(input)
		(text "WE" (rect 0 0 18 14)(font "Arial" (font_size 8)))
		(text "WE" (rect 21 75 39 89)(font "Arial" (font_size 8)))
		(line (pt 0 80)(pt 16 80))
	)
	(port
		(pt 96 32)
		(output)
		(text "Q" (rect 0 0 9 14)(font "Arial" (font_size 8)))
		(text "Q" (rect 66 27 75 41)(font "Arial" (font_size 8)))
		(line (pt 96 32)(pt 80 32))
	)
	(drawing
		(rectangle (rect 16 16 80 112))
	)
)
(symbol
	(rect 520 616 616 744)
	(text "ShiftRegister1" (rect 5 0 85 14)(font "Arial" (font_size 8)))
	(text "inst4" (rect 8 112 31 124)(font "Arial" ))
	(port
		(pt 0 32)
		(input)
		(text "Flush" (rect 0 0 30 14)(font "Arial" (font_size 8)))
		(text "Flush" (rect 21 27 51 41)(font "Arial" (font_size 8)))
		(line (pt 0 32)(pt 16 32))
	)
	(port
		(pt 0 48)
		(input)
		(text "data" (rect 0 0 24 14)(font "Arial" (font_size 8)))
		(text "data" (rect 21 43 45 57)(font "Arial" (font_size 8)))
		(line (pt 0 48)(pt 16 48))
	)
	(port
		(pt 0 64)
		(input)
		(text "Clk" (rect 0 0 16 14)(font "Arial" (font_size 8)))
		(text "Clk" (rect 21 59 37 73)(font "Arial" (font_size 8)))
		(line (pt 0 64)(pt 16 64))
	)
	(port
		(pt 0 80)
		(input)
		(text "WE" (rect 0 0 18 14)(font "Arial" (font_size 8)))
		(text "WE" (rect 21 75 39 89)(font "Arial" (font_size 8)))
		(line (pt 0 80)(pt 16 80))
	)
	(port
		(pt 96 32)
		(output)
		(text "Q" (rect 0 0 9 14)(font "Arial" (font_size 8)))
		(text "Q" (rect 66 27 75 41)(font "Arial" (font_size 8)))
		(line (pt 96 32)(pt 80 32))
	)
	(drawing
		(rectangle (rect 16 16 80 112))
	)
)
(connector
	(pt 264 96)
	(pt 464 96)
)
(connector
	(pt 616 240)
	(pt 736 240)
)
(connector
	(pt 464 288)
	(pt 520 288)
)
(connector
	(pt 464 424)
	(pt 520 424)
)
(connector
	(pt 616 376)
	(pt 760 376)
)
(connector
	(pt 464 560)
	(pt 520 560)
)
(connector
	(pt 616 512)
	(pt 760 512)
)
(connector
	(pt 464 696)
	(pt 520 696)
)
(connector
	(pt 616 648)
	(pt 760 648)
)
(connector
	(pt 264 128)
	(pt 448 128)
)
(connector
	(pt 480 64)
	(pt 256 64)
)
(connector
	(pt 480 648)
	(pt 520 648)
)
(connector
	(pt 520 512)
	(pt 480 512)
)
(connector
	(pt 480 512)
	(pt 480 648)
)
(connector
	(pt 520 376)
	(pt 480 376)
)
(connector
	(pt 480 376)
	(pt 480 512)
)
(connector
	(pt 520 240)
	(pt 480 240)
)
(connector
	(pt 480 240)
	(pt 480 376)
)
(connector
	(pt 520 272)
	(pt 448 272)
)
(connector
	(pt 520 664)
	(pt 248 664)
)
(connector
	(pt 256 528)
	(pt 520 528)
)
(connector
	(pt 256 392)
	(pt 520 392)
)
(connector
	(pt 464 288)
	(pt 464 424)
)
(connector
	(pt 448 408)
	(pt 520 408)
)
(connector
	(pt 464 424)
	(pt 464 560)
)
(connector
	(pt 448 272)
	(pt 448 408)
)
(connector
	(pt 464 560)
	(pt 464 696)
)
(connector
	(pt 448 680)
	(pt 520 680)
)
(connector
	(pt 520 544)
	(pt 448 544)
)
(connector
	(pt 448 408)
	(pt 448 544)
)
(connector
	(pt 448 544)
	(pt 448 680)
)
(connector
	(pt 520 256)
	(pt 264 256)
)
(connector
	(pt 480 104)
	(pt 520 104)
)
(connector
	(pt 448 136)
	(pt 520 136)
)
(connector
	(pt 464 152)
	(pt 520 152)
)
(connector
	(pt 480 64)
	(pt 480 104)
)
(connector
	(pt 480 104)
	(pt 480 240)
)
(connector
	(pt 616 104)
	(pt 760 104)
)
(connector
	(pt 448 128)
	(pt 448 136)
)
(connector
	(pt 448 136)
	(pt 448 272)
)
(connector
	(pt 464 96)
	(pt 464 152)
)
(connector
	(pt 464 152)
	(pt 464 288)
)
(connector
	(pt 520 120)
	(pt 328 120)
)
(connector
	(pt 328 160)
	(pt 328 120)
)
(connector
	(pt 328 160)
	(pt 264 160)
)
(junction (pt 464 288))
(junction (pt 464 424))
(junction (pt 464 560))
(junction (pt 480 512))
(junction (pt 480 376))
(junction (pt 480 240))
(junction (pt 448 272))
(junction (pt 448 408))
(junction (pt 448 544))
(junction (pt 480 104))
(junction (pt 448 136))
(junction (pt 464 152))
