/*
WARNING: Do NOT edit the input and output ports in this file in a text
editor if you plan to continue editing the block that represents it in
the Block Editor! File corruption is VERY likely to occur.
*/
/*
Copyright (C) 1991-2013 Altera Corporation
Your use of Altera Corporation's design tools, logic functions 
and other software and tools, and its AMPP partner logic 
functions, and any output files from any of the foregoing 
(including device programming or simulation files), and any 
associated documentation or information are expressly subject 
to the terms and conditions of the Altera Program License 
Subscription Agreement, Altera MegaCore Function License 
Agreement, or other applicable license agreement, including, 
without limitation, that your use is for the sole purpose of 
programming logic devices manufactured by Altera and sold by 
Altera or its authorized distributors.  Please refer to the 
applicable agreement for further details.
*/
(header "graphic" (version "1.4"))
(pin
	(input)
	(rect 285 40 301 208)
	(text "INPUT" (rect 6 125 16 153)(font "Arial" (font_size 6))(vertical))
	(text "Clk" (rect 4 5 16 21)(font "Arial" )(vertical))
	(pt 8 168)
	(drawing
		(line (pt 4 84)(pt 4 109))
		(line (pt 12 84)(pt 12 109))
		(line (pt 8 113)(pt 8 168))
		(line (pt 4 84)(pt 12 84))
		(line (pt 12 109)(pt 8 113))
		(line (pt 4 109)(pt 8 113))
	)
	(rotate270)
	(text "VCC" (rect -1 128 9 148)(font "Arial" (font_size 6))(vertical))
)
(pin
	(input)
	(rect 64 200 232 216)
	(text "INPUT" (rect 125 0 153 10)(font "Arial" (font_size 6)))
	(text "Data" (rect 5 0 29 12)(font "Arial" ))
	(pt 168 8)
	(drawing
		(line (pt 84 12)(pt 109 12))
		(line (pt 84 4)(pt 109 4))
		(line (pt 113 8)(pt 168 8))
		(line (pt 84 12)(pt 84 4))
		(line (pt 109 4)(pt 113 8))
		(line (pt 109 12)(pt 113 8))
	)
	(text "VCC" (rect 128 7 148 17)(font "Arial" (font_size 6)))
)
(pin
	(output)
	(rect 688 304 864 320)
	(text "OUTPUT" (rect 1 0 39 10)(font "Arial" (font_size 6)))
	(text "RegValue" (rect 90 0 137 12)(font "Arial" ))
	(pt 0 8)
	(drawing
		(line (pt 0 8)(pt 52 8))
		(line (pt 52 4)(pt 78 4))
		(line (pt 52 12)(pt 78 12))
		(line (pt 52 12)(pt 52 4))
		(line (pt 78 4)(pt 82 8))
		(line (pt 82 8)(pt 78 12))
		(line (pt 78 12)(pt 82 8))
	)
)
(symbol
	(rect 477 288 541 368)
	(text "DFF" (rect 1 0 19 10)(font "Arial" (font_size 6)))
	(text "inst40" (rect 3 68 32 80)(font "Arial" ))
	(port
		(pt 32 80)
		(input)
		(text "CLRN" (rect 21 59 44 71)(font "Courier New" (bold)))
		(text "CLRN" (rect 21 58 44 70)(font "Courier New" (bold)))
		(line (pt 32 80)(pt 32 76))
	)
	(port
		(pt 0 40)
		(input)
		(text "CLK" (rect 3 29 20 41)(font "Courier New" (bold))(invisible))
		(text "CLK" (rect 3 29 20 41)(font "Courier New" (bold))(invisible))
		(line (pt 0 40)(pt 12 40))
	)
	(port
		(pt 0 24)
		(input)
		(text "D" (rect 14 20 19 32)(font "Courier New" (bold)))
		(text "D" (rect 14 20 19 32)(font "Courier New" (bold)))
		(line (pt 0 24)(pt 12 24))
	)
	(port
		(pt 32 0)
		(input)
		(text "PRN" (rect 24 13 41 25)(font "Courier New" (bold)))
		(text "PRN" (rect 24 11 41 23)(font "Courier New" (bold)))
		(line (pt 32 4)(pt 32 0))
	)
	(port
		(pt 64 24)
		(output)
		(text "Q" (rect 45 20 50 32)(font "Courier New" (bold)))
		(text "Q" (rect 43 20 48 32)(font "Courier New" (bold)))
		(line (pt 52 24)(pt 64 24))
	)
	(drawing
		(line (pt 12 12)(pt 52 12))
		(line (pt 12 68)(pt 52 68))
		(line (pt 52 68)(pt 52 12))
		(line (pt 12 68)(pt 12 12))
		(line (pt 19 40)(pt 12 47))
		(line (pt 12 32)(pt 20 40))
		(circle (rect 28 4 36 12))
		(circle (rect 28 68 36 76))
	)
)
(symbol
	(rect 397 216 429 232)
	(text "VCC" (rect 7 0 27 10)(font "Arial" (font_size 6)))
	(text "inst42" (rect 3 5 32 17)(font "Arial" )(invisible))
	(port
		(pt 16 16)
		(output)
		(text "1" (rect 19 7 24 19)(font "Courier New" (bold))(invisible))
		(text "1" (rect 19 7 24 19)(font "Courier New" (bold))(invisible))
		(line (pt 16 16)(pt 16 8))
	)
	(drawing
		(line (pt 8 8)(pt 24 8))
	)
)
(connector
	(pt 413 248)
	(pt 509 248)
)
(connector
	(pt 413 384)
	(pt 509 384)
)
(connector
	(pt 293 328)
	(pt 477 328)
)
(connector
	(pt 293 208)
	(pt 293 328)
)
(connector
	(pt 509 368)
	(pt 509 384)
)
(connector
	(pt 413 232)
	(pt 413 248)
)
(connector
	(pt 413 248)
	(pt 413 384)
)
(connector
	(pt 509 248)
	(pt 509 288)
)
(connector
	(text "<<__$DEF_ALIAS25779>>" (rect 551 296 680 308)(font "Arial" )(invisible))
	(pt 688 312)
	(pt 541 312)
)
(connector
	(pt 232 208)
	(pt 232 312)
)
(connector
	(text "<<__$DEF_ALIAS25777>>" (rect 231 296 360 308)(font "Arial" )(invisible))
	(pt 232 312)
	(pt 477 312)
)
(junction (pt 413 248))
