/*
WARNING: Do NOT edit the input and output ports in this file in a text
editor if you plan to continue editing the block that represents it in
the Block Editor! File corruption is VERY likely to occur.
*/
/*
Copyright (C) 1991-2013 Altera Corporation
Your use of Altera Corporation's design tools, logic functions 
and other software and tools, and its AMPP partner logic 
functions, and any output files from any of the foregoing 
(including device programming or simulation files), and any 
associated documentation or information are expressly subject 
to the terms and conditions of the Altera Program License 
Subscription Agreement, Altera MegaCore Function License 
Agreement, or other applicable license agreement, including, 
without limitation, that your use is for the sole purpose of 
programming logic devices manufactured by Altera and sold by 
Altera or its authorized distributors.  Please refer to the 
applicable agreement for further details.
*/
(header "graphic" (version "1.4"))
(pin
	(input)
	(rect 144 224 320 240)
	(text "INPUT" (rect 133 0 161 10)(font "Arial" (font_size 6)))
	(text "Clk" (rect 9 0 25 12)(font "Arial" ))
	(pt 176 8)
	(drawing
		(line (pt 92 12)(pt 117 12))
		(line (pt 92 4)(pt 117 4))
		(line (pt 121 8)(pt 176 8))
		(line (pt 92 12)(pt 92 4))
		(line (pt 117 4)(pt 121 8))
		(line (pt 117 12)(pt 121 8))
	)
	(text "VCC" (rect 136 7 156 17)(font "Arial" (font_size 6)))
)
(pin
	(input)
	(rect 144 240 320 256)
	(text "INPUT" (rect 133 0 161 10)(font "Arial" (font_size 6)))
	(text "WE" (rect 9 0 26 12)(font "Arial" ))
	(pt 176 8)
	(drawing
		(line (pt 92 12)(pt 117 12))
		(line (pt 92 4)(pt 117 4))
		(line (pt 121 8)(pt 176 8))
		(line (pt 92 12)(pt 92 4))
		(line (pt 117 4)(pt 121 8))
		(line (pt 117 12)(pt 121 8))
	)
	(text "VCC" (rect 136 7 156 17)(font "Arial" (font_size 6)))
)
(pin
	(input)
	(rect 152 192 320 208)
	(text "INPUT" (rect 125 0 153 10)(font "Arial" (font_size 6)))
	(text "data" (rect 5 0 26 12)(font "Arial" ))
	(pt 168 8)
	(drawing
		(line (pt 84 12)(pt 109 12))
		(line (pt 84 4)(pt 109 4))
		(line (pt 113 8)(pt 168 8))
		(line (pt 84 12)(pt 84 4))
		(line (pt 109 4)(pt 113 8))
		(line (pt 109 12)(pt 113 8))
	)
	(text "VCC" (rect 128 7 148 17)(font "Arial" (font_size 6)))
)
(pin
	(input)
	(rect 56 160 224 176)
	(text "INPUT" (rect 125 0 153 10)(font "Arial" (font_size 6)))
	(text "Flush" (rect 5 0 32 12)(font "Arial" ))
	(pt 168 8)
	(drawing
		(line (pt 84 12)(pt 109 12))
		(line (pt 84 4)(pt 109 4))
		(line (pt 113 8)(pt 168 8))
		(line (pt 84 12)(pt 84 4))
		(line (pt 109 4)(pt 113 8))
		(line (pt 109 12)(pt 113 8))
	)
	(text "GND" (rect 128 7 149 17)(font "Arial" (font_size 6)))
)
(pin
	(output)
	(rect 608 208 784 224)
	(text "OUTPUT" (rect 1 0 39 10)(font "Arial" (font_size 6)))
	(text "Q" (rect 90 0 98 12)(font "Arial" ))
	(pt 0 8)
	(drawing
		(line (pt 0 8)(pt 52 8))
		(line (pt 52 4)(pt 78 4))
		(line (pt 52 12)(pt 78 12))
		(line (pt 52 12)(pt 52 4))
		(line (pt 78 4)(pt 82 8))
		(line (pt 82 8)(pt 78 12))
		(line (pt 78 12)(pt 82 8))
	)
)
(symbol
	(rect 16 96 48 112)
	(text "VCC" (rect 7 0 27 10)(font "Arial" (font_size 6)))
	(text "inst2" (rect 3 5 26 17)(font "Arial" )(invisible))
	(port
		(pt 16 16)
		(output)
		(text "1" (rect 19 7 24 19)(font "Courier New" (bold))(invisible))
		(text "1" (rect 19 7 24 19)(font "Courier New" (bold))(invisible))
		(line (pt 16 16)(pt 16 8))
	)
	(drawing
		(line (pt 8 8)(pt 24 8))
	)
)
(symbol
	(rect 344 136 488 280)
	(text "ShiftRegister_1" (rect 29 0 132 16)(font "Arial" (font_size 10)))
	(text "inst" (rect 8 128 25 140)(font "Arial" ))
	(port
		(pt 0 32)
		(input)
		(text "sclr" (rect 0 0 21 14)(font "Arial" (font_size 8)))
		(text "sclr" (rect 20 25 41 39)(font "Arial" (font_size 8)))
		(line (pt 0 32)(pt 16 32))
	)
	(port
		(pt 0 48)
		(input)
		(text "load" (rect 0 0 23 14)(font "Arial" (font_size 8)))
		(text "load" (rect 20 41 43 55)(font "Arial" (font_size 8)))
		(line (pt 0 48)(pt 16 48))
	)
	(port
		(pt 0 64)
		(input)
		(text "data[0]" (rect 0 0 38 14)(font "Arial" (font_size 8)))
		(text "data[0]" (rect 20 57 58 71)(font "Arial" (font_size 8)))
		(line (pt 0 64)(pt 16 64))
	)
	(port
		(pt 0 96)
		(input)
		(text "clock" (rect 0 0 29 14)(font "Arial" (font_size 8)))
		(text "clock" (rect 26 89 55 103)(font "Arial" (font_size 8)))
		(line (pt 0 96)(pt 16 96))
	)
	(port
		(pt 0 112)
		(input)
		(text "enable" (rect 0 0 37 14)(font "Arial" (font_size 8)))
		(text "enable" (rect 20 105 57 119)(font "Arial" (font_size 8)))
		(line (pt 0 112)(pt 16 112))
	)
	(port
		(pt 144 80)
		(output)
		(text "q[0]" (rect 0 0 21 14)(font "Arial" (font_size 8)))
		(text "q[0]" (rect 107 73 128 87)(font "Arial" (font_size 8)))
		(line (pt 144 80)(pt 128 80))
	)
	(drawing
		(text "left shift" (rect 92 17 134 29)(font "Arial" ))
		(line (pt 16 16)(pt 16 128))
		(line (pt 16 16)(pt 128 16))
		(line (pt 16 128)(pt 128 128))
		(line (pt 128 16)(pt 128 128))
		(line (pt 0 0)(pt 146 0))
		(line (pt 146 0)(pt 146 146))
		(line (pt 0 146)(pt 146 146))
		(line (pt 0 0)(pt 0 146))
		(line (pt 16 90)(pt 22 96))
		(line (pt 22 96)(pt 16 102))
		(line (pt 0 0)(pt 0 0))
		(line (pt 0 0)(pt 0 0))
		(line (pt 0 0)(pt 0 0))
		(line (pt 0 0)(pt 0 0))
	)
)
(connector
	(pt 320 200)
	(pt 344 200)
)
(connector
	(pt 320 248)
	(pt 344 248)
)
(connector
	(pt 320 232)
	(pt 344 232)
)
(connector
	(pt 224 168)
	(pt 344 168)
)
(connector
	(pt 32 184)
	(pt 32 112)
)
(connector
	(pt 344 184)
	(pt 32 184)
)
(connector
	(pt 608 216)
	(pt 488 216)
)
