/*
WARNING: Do NOT edit the input and output ports in this file in a text
editor if you plan to continue editing the block that represents it in
the Block Editor! File corruption is VERY likely to occur.
*/
/*
Copyright (C) 1991-2013 Altera Corporation
Your use of Altera Corporation's design tools, logic functions 
and other software and tools, and its AMPP partner logic 
functions, and any output files from any of the foregoing 
(including device programming or simulation files), and any 
associated documentation or information are expressly subject 
to the terms and conditions of the Altera Program License 
Subscription Agreement, Altera MegaCore Function License 
Agreement, or other applicable license agreement, including, 
without limitation, that your use is for the sole purpose of 
programming logic devices manufactured by Altera and sold by 
Altera or its authorized distributors.  Please refer to the 
applicable agreement for further details.
*/
(header "graphic" (version "1.4"))
(pin
	(input)
	(rect 128 160 296 176)
	(text "INPUT" (rect 125 0 153 10)(font "Arial" (font_size 6)))
	(text "MemRead" (rect 5 0 55 12)(font "Arial" ))
	(pt 168 8)
	(drawing
		(line (pt 84 12)(pt 109 12))
		(line (pt 84 4)(pt 109 4))
		(line (pt 113 8)(pt 168 8))
		(line (pt 84 12)(pt 84 4))
		(line (pt 109 4)(pt 113 8))
		(line (pt 109 12)(pt 113 8))
	)
	(text "VCC" (rect 128 7 148 17)(font "Arial" (font_size 6)))
)
(pin
	(input)
	(rect 128 176 296 192)
	(text "INPUT" (rect 125 0 153 10)(font "Arial" (font_size 6)))
	(text "Valid" (rect 5 0 29 12)(font "Arial" ))
	(pt 168 8)
	(drawing
		(line (pt 84 12)(pt 109 12))
		(line (pt 84 4)(pt 109 4))
		(line (pt 113 8)(pt 168 8))
		(line (pt 84 12)(pt 84 4))
		(line (pt 109 4)(pt 113 8))
		(line (pt 109 12)(pt 113 8))
	)
	(text "VCC" (rect 128 7 148 17)(font "Arial" (font_size 6)))
)
(pin
	(input)
	(rect 112 192 296 208)
	(text "INPUT" (rect 141 0 169 10)(font "Arial" (font_size 6)))
	(text "CounterRes[2..0]" (rect 5 0 90 12)(font "Arial" ))
	(pt 184 8)
	(drawing
		(line (pt 100 12)(pt 125 12))
		(line (pt 100 4)(pt 125 4))
		(line (pt 129 8)(pt 184 8))
		(line (pt 100 12)(pt 100 4))
		(line (pt 125 4)(pt 129 8))
		(line (pt 125 12)(pt 129 8))
	)
	(text "VCC" (rect 144 7 164 17)(font "Arial" (font_size 6)))
)
(pin
	(input)
	(rect 128 208 296 224)
	(text "INPUT" (rect 125 0 153 10)(font "Arial" (font_size 6)))
	(text "CurrState[2..0]" (rect 5 0 79 12)(font "Arial" ))
	(pt 168 8)
	(drawing
		(line (pt 84 12)(pt 109 12))
		(line (pt 84 4)(pt 109 4))
		(line (pt 113 8)(pt 168 8))
		(line (pt 84 12)(pt 84 4))
		(line (pt 109 4)(pt 113 8))
		(line (pt 109 12)(pt 113 8))
	)
	(text "VCC" (rect 128 7 148 17)(font "Arial" (font_size 6)))
)
(pin
	(output)
	(rect 632 160 808 176)
	(text "OUTPUT" (rect 1 0 39 10)(font "Arial" (font_size 6)))
	(text "stall" (rect 90 0 110 12)(font "Arial" ))
	(pt 0 8)
	(drawing
		(line (pt 0 8)(pt 52 8))
		(line (pt 52 4)(pt 78 4))
		(line (pt 52 12)(pt 78 12))
		(line (pt 52 12)(pt 52 4))
		(line (pt 78 4)(pt 82 8))
		(line (pt 82 8)(pt 78 12))
		(line (pt 78 12)(pt 82 8))
	)
)
(pin
	(output)
	(rect 632 176 808 192)
	(text "OUTPUT" (rect 1 0 39 10)(font "Arial" (font_size 6)))
	(text "wren_a_L0" (rect 90 0 141 12)(font "Arial" ))
	(pt 0 8)
	(drawing
		(line (pt 0 8)(pt 52 8))
		(line (pt 52 4)(pt 78 4))
		(line (pt 52 12)(pt 78 12))
		(line (pt 52 12)(pt 52 4))
		(line (pt 78 4)(pt 82 8))
		(line (pt 82 8)(pt 78 12))
		(line (pt 78 12)(pt 82 8))
	)
)
(pin
	(output)
	(rect 632 192 808 208)
	(text "OUTPUT" (rect 1 0 39 10)(font "Arial" (font_size 6)))
	(text "wren_b_L0" (rect 90 0 141 12)(font "Arial" ))
	(pt 0 8)
	(drawing
		(line (pt 0 8)(pt 52 8))
		(line (pt 52 4)(pt 78 4))
		(line (pt 52 12)(pt 78 12))
		(line (pt 52 12)(pt 52 4))
		(line (pt 78 4)(pt 82 8))
		(line (pt 82 8)(pt 78 12))
		(line (pt 78 12)(pt 82 8))
	)
)
(pin
	(output)
	(rect 632 208 808 224)
	(text "OUTPUT" (rect 1 0 39 10)(font "Arial" (font_size 6)))
	(text "wren_L1" (rect 90 0 130 12)(font "Arial" ))
	(pt 0 8)
	(drawing
		(line (pt 0 8)(pt 52 8))
		(line (pt 52 4)(pt 78 4))
		(line (pt 52 12)(pt 78 12))
		(line (pt 52 12)(pt 52 4))
		(line (pt 78 4)(pt 82 8))
		(line (pt 82 8)(pt 78 12))
		(line (pt 78 12)(pt 82 8))
	)
)
(pin
	(output)
	(rect 632 224 808 240)
	(text "OUTPUT" (rect 1 0 39 10)(font "Arial" (font_size 6)))
	(text "cnt_en" (rect 90 0 123 12)(font "Arial" ))
	(pt 0 8)
	(drawing
		(line (pt 0 8)(pt 52 8))
		(line (pt 52 4)(pt 78 4))
		(line (pt 52 12)(pt 78 12))
		(line (pt 52 12)(pt 52 4))
		(line (pt 78 4)(pt 82 8))
		(line (pt 82 8)(pt 78 12))
		(line (pt 78 12)(pt 82 8))
	)
)
(pin
	(output)
	(rect 632 240 808 256)
	(text "OUTPUT" (rect 1 0 39 10)(font "Arial" (font_size 6)))
	(text "NextState[2..0]" (rect 90 0 165 12)(font "Arial" ))
	(pt 0 8)
	(drawing
		(line (pt 0 8)(pt 52 8))
		(line (pt 52 4)(pt 78 4))
		(line (pt 52 12)(pt 78 12))
		(line (pt 52 12)(pt 52 4))
		(line (pt 78 4)(pt 82 8))
		(line (pt 82 8)(pt 78 12))
		(line (pt 78 12)(pt 82 8))
	)
)
(symbol
	(rect 352 136 584 296)
	(text "MemoryControl" (rect 5 0 89 14)(font "Arial" (font_size 8)))
	(text "inst" (rect 8 144 25 156)(font "Arial" ))
	(port
		(pt 0 32)
		(input)
		(text "MemRead" (rect 0 0 55 14)(font "Arial" (font_size 8)))
		(text "MemRead" (rect 21 27 76 41)(font "Arial" (font_size 8)))
		(line (pt 0 32)(pt 16 32))
	)
	(port
		(pt 0 48)
		(input)
		(text "Valid" (rect 0 0 28 14)(font "Arial" (font_size 8)))
		(text "Valid" (rect 21 43 49 57)(font "Arial" (font_size 8)))
		(line (pt 0 48)(pt 16 48))
	)
	(port
		(pt 0 64)
		(input)
		(text "CounterRes[2..0]" (rect 0 0 95 14)(font "Arial" (font_size 8)))
		(text "CounterRes[2..0]" (rect 21 59 116 73)(font "Arial" (font_size 8)))
		(line (pt 0 64)(pt 16 64)(line_width 3))
	)
	(port
		(pt 0 80)
		(input)
		(text "CurrState[2..0]" (rect 0 0 82 14)(font "Arial" (font_size 8)))
		(text "CurrState[2..0]" (rect 21 75 103 89)(font "Arial" (font_size 8)))
		(line (pt 0 80)(pt 16 80)(line_width 3))
	)
	(port
		(pt 232 32)
		(output)
		(text "stall" (rect 0 0 22 14)(font "Arial" (font_size 8)))
		(text "stall" (rect 189 27 211 41)(font "Arial" (font_size 8)))
		(line (pt 232 32)(pt 216 32))
	)
	(port
		(pt 232 48)
		(output)
		(text "wren_a_L0" (rect 0 0 66 14)(font "Arial" (font_size 8)))
		(text "wren_a_L0" (rect 145 43 211 57)(font "Arial" (font_size 8)))
		(line (pt 232 48)(pt 216 48))
	)
	(port
		(pt 232 64)
		(output)
		(text "wren_b_L0" (rect 0 0 66 14)(font "Arial" (font_size 8)))
		(text "wren_b_L0" (rect 145 59 211 73)(font "Arial" (font_size 8)))
		(line (pt 232 64)(pt 216 64))
	)
	(port
		(pt 232 80)
		(output)
		(text "wren_L1" (rect 0 0 51 14)(font "Arial" (font_size 8)))
		(text "wren_L1" (rect 160 75 211 89)(font "Arial" (font_size 8)))
		(line (pt 232 80)(pt 216 80))
	)
	(port
		(pt 232 96)
		(output)
		(text "cnt_en" (rect 0 0 38 14)(font "Arial" (font_size 8)))
		(text "cnt_en" (rect 173 91 211 105)(font "Arial" (font_size 8)))
		(line (pt 232 96)(pt 216 96))
	)
	(port
		(pt 232 112)
		(output)
		(text "NextState[2..0]" (rect 0 0 83 14)(font "Arial" (font_size 8)))
		(text "NextState[2..0]" (rect 128 107 211 121)(font "Arial" (font_size 8)))
		(line (pt 232 112)(pt 216 112)(line_width 3))
	)
	(drawing
		(rectangle (rect 16 16 216 144))
	)
)
(connector
	(pt 296 168)
	(pt 352 168)
)
(connector
	(pt 296 184)
	(pt 352 184)
)
(connector
	(pt 296 200)
	(pt 352 200)
	(bus)
)
(connector
	(pt 296 216)
	(pt 352 216)
	(bus)
)
(connector
	(pt 584 168)
	(pt 632 168)
)
(connector
	(pt 584 184)
	(pt 632 184)
)
(connector
	(pt 584 200)
	(pt 632 200)
)
(connector
	(pt 584 216)
	(pt 632 216)
)
(connector
	(pt 584 232)
	(pt 632 232)
)
(connector
	(pt 584 248)
	(pt 632 248)
	(bus)
)
